@relation all

@attribute 'Length' numeric
@attribute 'Angle' numeric

@data

% aalborg
200.562220, 0.008202
20.264000, -1.418416
167.866010, -0.251063
20.285980, 1.328346
70.648010, 0.264770
35.625000, -2.199127
45.481990, -0.078451
20.283020, -1.444994
20.243960, 0.417875
25.355040, 0.998058
25.281010, 0.874434
25.268980, 0.555434
133.786990, -0.274979
30.467040, -1.611045
538.742000, -0.749300
20.130010, -1.493113
151.319950, -0.481662
55.410030, 0.783727
20.270020, 1.266085
195.130000, 0.395988
50.429940, -1.211081
20.270020, -1.035765
25.329950, 0.015997
66.290040, 0.739793
136.330080, -0.718856
35.300050, 0.275537
60.869870, 0.003817
25.370120, -1.452832
20.369870, -1.391846
45.500000, -0.029968
121.169920, 1.590927

% alpine1
354.823790, 0.170448
35.408020, -0.360536
30.187990, -0.504812
45.346010, -1.356568
40.250980, -0.668385
126.382020, 0.460269
65.711000, -0.781801
97.190970, -0.007032
25.277040, 0.672122
87.375980, -0.141794
25.203980, 0.201827
25.251040, 0.842664
30.338990, 0.950301
121.968990, 0.818292
25.150020, -0.601725
199.199960, 0.368040
35.460080, -0.360584
25.139890, -0.799864
25.150030, -0.950628
25.160030, -0.787210
25.160030, -0.319602
35.399910, 0.340548
135.980100, -1.088186
96.049930, 0.503491
25.150020, 0.325524
45.699950, 0.005726
25.350100, -0.226654
40.219970, 1.480683
25.160030, 0.929303
30.099980, 0.571105
30.099970, 0.773653
140.620000, -0.799223
206.110110, 0.977244
60.250000, -0.845731
25.139890, -0.617072
35.360110, -1.761307
25.179930, -0.426491
50.609860, -0.015402
25.160160, 0.941799
110.859860, -1.248352
173.530030, 0.577282
25.280030, 0.420348
25.159910, -0.049131
126.510010, -0.853042
66.150150, -0.632719
25.290040, 0.498850
71.639890, 0.232054
107.340090, -0.773690
45.609860, -0.964203
40.400150, -0.045818
40.500000, 1.122917
30.280030, 0.043702
45.510010, -0.997887
65.629880, 0.386752
25.300050, 0.310337
65.679930, -0.728338
354.919920, -0.010017
273.879890, -1.373186
25.540030, -0.363535
142.189950, 0.719736
106.410150, -0.687328
82.629880, -0.005667
71.060060, -0.509939
131.860350, 0.866329
112.759770, -0.555801
155.120120, -0.554773
86.109860, -1.477164
50.649900, -0.528240
101.280280, -0.962325
239.100090, 0.496261
45.679690, 0.577923
123.580080, -0.307447
25.339840, -0.376916
220.680180, 0.932689
25.299800, 0.698557
106.170410, 0.948413
30.349610, 0.791818

% cg1
351.190600, -0.016090
50.670990, -0.451649
20.152000, 0.001487
110.912020, -1.027069
45.604010, -0.408897
351.779960, 1.483273
90.949040, -1.595134
50.869990, -0.057964
20.219980, -0.261375
45.570060, -0.847380
50.569950, -0.823410
30.280030, -0.478199
50.869990, -0.015828
55.559940, 0.641154
407.290040, -0.002238
20.069950, 0.174861
118.520020, 0.003063

% cg2
182.306090, 0.017221
258.506000, 0.526448
45.708010, 0.516317
149.677980, 0.001483
106.046990, -0.995392
60.680060, -1.036704
97.838990, -0.008612
55.622980, -1.128044
497.476010, -0.006779
55.640020, 1.127293
211.969970, -2.474466
50.670040, 0.356868
452.589970, 0.003075
182.369870, -1.423872
50.340090, 0.552516
149.229980, 0.013047
226.939940, -2.317399

% c-speedway
297.335100, 0.061197
1049.437990, -3.344233
597.680050, 0.217268
1048.179930, -3.335921

% e-road
202.120200, 0.012129
30.396010, 0.259254
112.513980, -0.543239
134.898010, 0.288426
161.630010, -1.949976
40.411980, 0.566460
40.471010, -0.458086
35.538030, 0.480965
191.846980, -1.572688
191.340030, 1.681297
212.119990, -1.170745
40.370000, 0.467347
282.809940, -1.341373
80.770020, -1.352995
55.459960, 1.236203
40.320060, 0.475634
45.439950, 1.040452
35.239990, -0.295088
65.540040, -1.451371
25.559930, 0.250580
35.340090, -0.404388
85.840090, 1.876020
141.219970, -1.297759
45.510010, -0.982284
60.549800, 0.755847
55.560060, -0.915828
40.330080, 0.881970
92.389890, -0.017858
75.560060, -1.305286
30.229980, 0.687587
196.880130, -1.622075
96.059810, 0.652408
276.390140, 0.003322

% e-speedway
297.768400, 0.061997
574.245030, -1.721569
301.354980, 0.111004
577.229980, -1.738120
597.699950, 0.213685
577.229980, -1.733493
301.360110, 0.123575
577.229980, -1.719144

% e-track2
247.179650, -0.162832
55.710980, -2.075217
244.013000, -1.336942
70.892030, 2.579769
50.680970, 0.018925
60.632990, 1.267857
51.014040, 0.008624
91.265990, -0.900834
25.299010, 0.477977
45.716010, 0.006501
50.505980, 1.720339
117.562010, 0.011483
60.609980, -1.897473
257.849980, -0.914862
45.489990, 1.495685
45.410030, -0.095407
45.449960, -1.514844
126.020020, -1.563640
149.479980, -0.018810
50.480100, -1.792530
25.279910, 1.258380
455.500120, 0.355489
40.309810, -0.782310
30.200200, -0.012205
45.429930, -1.508806
81.310060, -0.024162
70.649900, 2.290142
148.399900, 0.016002
45.440190, -1.546914
76.359860, -0.066214
45.469970, -1.539594

% e-track3
396.126090, 0.019605
35.437010, 0.574153
196.037020, 0.001711
75.579960, -1.221054
96.871030, 0.001701
70.771970, -1.148916
108.351990, -0.213141
65.810060, -1.115674
249.739990, -0.009244
35.459960, 0.862438
40.530030, 1.102827
35.390010, -1.219541
984.779910, -0.300152
385.520020, -2.567719
195.590090, -0.003015
80.899900, -1.288405
149.280030, -0.011240
70.620120, 1.204969
227.079830, -0.006513
75.739990, 1.917726
267.780030, 0.479870
165.270020, -0.259667
60.580080, -1.511932
35.319820, -0.978361
201.020020, 0.003826
35.320320, -0.599822

% e-track4
497.932220, 0.007788
75.993950, 0.637029
85.607060, 0.731473
96.075990, 0.900292
75.903990, -0.860623
203.106990, -0.742224
76.099980, -0.680314
154.609990, -0.189064
124.790030, -0.489840
75.849980, -0.474809
174.080080, -1.055888
121.299930, 1.051349
80.780020, 0.441246
75.510010, -0.613953
90.579960, -0.594264
95.830080, -0.594219
602.819820, -0.037722
458.790040, -0.604689
738.729980, 0.134409
590.830080, -0.994671
75.450200, -1.029687
277.839840, -0.599514
75.759770, 0.764736
81.010250, 0.613851
238.540040, -0.264538
251.449710, 0.004420
324.550290, -1.262372
290.850100, -0.317921
80.849610, -0.717846
158.090330, -0.928487
161.770020, 0.441315
75.929680, 0.462432
86.320320, 0.570914

% e-track6
231.789100, -0.004490
163.846010, -0.449024
75.492980, -1.074767
61.073000, -0.003890
70.697020, 1.082826
164.341010, 0.009121
100.927970, -1.753259
133.587960, -0.047862
55.810050, -0.384513
327.599980, -0.262888
148.969970, 0.018652
65.780030, -1.550748
65.719970, -0.639336
96.020020, 1.364920
50.460080, 0.549244
218.559940, 1.216447
169.189940, 0.001989
98.320070, -0.492318
130.219970, 0.003497
95.409910, -0.482666
198.880130, 0.015443
55.500000, -1.662444
159.939940, -0.791635
128.300050, -0.462196
45.479980, 0.649508
443.169920, 1.255666
50.940190, -0.366210
66.429930, -0.004263
65.659910, -1.183138
45.360110, -0.367396
70.909910, -0.907133
65.650150, 0.476725
60.579830, -0.085024

% forza
578.587870, -0.028302
561.638000, 0.002161
393.060060, -1.198127
363.280030, -0.115005
435.719970, 0.246066
106.090090, -1.391150
263.339840, -0.437418
40.400150, -1.076574
356.760010, -0.144780
47.059810, 0.245236
645.229980, -0.004814
40.400150, 0.615988
65.629880, 0.036635
40.270020, -0.635208
40.290040, 0.450933
50.479980, 0.381861
948.680180, 0.003435
110.919920, -1.398833
60.649900, -0.472992
95.689940, -0.722545
66.300290, -0.147860
112.069830, -0.442863

% ruudskogen
259.425910, -0.006693
70.554990, 1.709185
60.668000, 1.823054
80.676000, -0.505669
75.560020, -1.191295
75.716010, -1.247215
92.357970, -0.389193
291.168030, -0.135999
60.909910, -0.341148
101.080080, -1.102371
65.979980, 0.549989
213.219970, -0.688106
95.750000, -1.073265
65.780030, -0.545199
263.439940, -0.035540
96.060060, 1.855851
111.290040, -1.546144
86.560060, -0.179381
346.319820, 0.023935
129.170170, -0.656282
141.139890, -0.954135
218.840090, -0.898370
141.599850, -0.957979
57.020020, 0.209774

% street1
249.759510, 0.003656
70.756980, 0.623863
70.722020, -0.679388
75.518010, 0.816801
273.710990, 0.117804
60.687990, -1.499711
81.697020, -0.018711
60.674990, 1.492451
92.280950, 0.025879
60.710080, -1.493598
226.739990, -0.009836
50.459960, 1.231687
50.500000, -1.406835
86.949950, -0.009101
50.480100, -1.256256
284.079960, -0.201729
149.979980, -0.659377
808.830080, 0.002356
50.659910, -2.230501
71.630130, -0.103212
116.879880, 0.517056
60.560060, 1.446930
236.810060, 0.544527
65.739990, -0.689271
143.760010, -0.115925
70.799800, -2.685744
