   -0.01628;    0.01336;    6.82400;    0.02673;   25.02690;   30.04470;   -0.08915;   -0.02950;   27.32010;   27.47740;   25.85720;   25.85720;    0.33893
   -0.01226;   -0.00484;    7.39600;    5.09030;   30.09040;   33.63980;   -0.07528;    0.03786;   27.09540;   28.78370;   28.78370;   28.78370;    0.33897
   -0.00640;   -0.00270;    7.92400;   10.26630;   35.26640;   36.95990;   -0.04359;    0.03737;   30.97980;   29.79490;   31.59030;   31.59030;    0.33884
   -0.00331;   -0.00125;    8.41000;   15.45900;   40.45920;   39.98530;   -0.02151;   -0.00609;   33.03910;   33.44030;   34.19620;   34.19620;    0.33886
   -0.00177;   -0.00051;    8.85000;   20.51110;   45.51120;   42.67620;   -0.01124;   -0.04059;   35.93000;   36.29880;   36.50900;   36.50900;    0.33871
   -0.00092;   -0.00053;    9.27000;   25.63980;   50.63990;   45.21850;   -0.00938;   -0.00271;   37.96650;   38.01400;   38.67800;   38.67800;    0.33872
   -0.00057;   -0.00001;    9.67000;   30.79610;   55.79630;   47.57080;   -0.00031;   -0.01131;   39.93330;   39.95610;   40.67910;   40.67910;    0.33863
   -0.00055;   -0.00001;   10.05000;   35.93260;   60.93270;   49.72780;   -0.00017;    0.03191;   41.75300;   41.76390;   42.51130;   42.51130;    0.33860
   -0.00050;   -0.00000;   10.41000;   41.00490;   66.00500;   51.69800;   -0.00014;    0.05906;   43.45620;   43.42400;   44.18630;   44.18630;    0.33860
   -0.00050;   -0.00000;   10.77000;   46.27090;   71.27100;   53.59710;   -0.00014;   -0.04845;   45.07340;   45.04700;   45.79780;   45.79780;    0.33849
   -0.00049;   -0.00001;   11.11000;   51.41530;   76.41550;   55.32350;   -0.00038;    0.01257;   46.46120;   46.48560;   47.26060;   47.26060;    0.33846
   -0.00048;   -0.00001;   11.45000;   56.71930;   81.71950;   56.97400;   -0.00041;   -0.00983;   47.85680;   47.84030;   48.65380;   48.65380;    0.33848
   -0.00045;   -0.00003;   11.77000;   61.85070;   86.85080;   58.45690;   -0.00100;    0.01402;   49.11430;   49.13900;   49.91050;   49.91050;    0.33839
   -0.00044;    0.00000;   12.09000;   67.11090;   92.11100;   59.87600;    0.00005;    0.01076;   50.31170;   50.30640;   51.10700;   51.10700;    0.33844
   -0.00044;   -0.00000;   12.39000;   72.15430;   97.15440;   61.14810;   -0.00006;    0.04143;   51.38020;   51.38460;   52.18110;   52.18110;    0.33836
   -0.00044;   -0.00000;   12.69000;   77.30140;  102.30200;   62.36650;    0.00001;    0.01681;   52.39110;   52.40210;   53.20870;   53.20870;    0.33834
   -0.00041;   -0.00001;   12.99000;   82.54780;  107.54800;   63.53190;   -0.00025;    0.03836;   53.38180;   53.36990;   54.19080;   54.19080;    0.33826
   -0.00040;    0.00001;   13.29000;   87.88910;  112.88900;   64.64550;    0.00014;    0.01185;   54.30650;   54.31940;   55.12930;   55.12930;    0.33826
   -0.00040;    0.00000;   13.57000;   92.95630;  117.95600;   65.63900;    0.00011;    0.01347;   55.13830;   55.15430;   55.96640;   55.96640;    0.33823
   -0.00040;   -0.00000;   13.85000;   98.09910;  123.09900;   66.58970;   -0.00005;    0.00394;   55.94840;   55.95560;   56.76750;   56.76750;    0.33819
   -0.00040;    0.00001;   14.13000;  103.31500;  128.31500;   67.53980;    0.00008;   -0.80852;   56.71110;   56.67660;   57.56720;   57.56720;    0.33817
   -0.00040;    0.00000;   14.41000;  108.60800;  133.60800;   68.56530;   -0.00011;   -1.91882;   57.61660;   57.61350;   58.42100;   58.42100;    0.33014
   -0.00036;    0.00002;   14.69000;  113.98400;  138.98399;   69.67460;    0.00010;   -2.61420;   58.58560;   58.50420;   59.35460;   59.35460;    0.33655
   -0.00036;    0.00001;   14.95000;  119.05500;  144.05499;   70.75530;    0.00016;   -3.16870;   59.44170;   59.44060;   60.34370;   60.34370;    0.33937
   -0.00037;   -0.00001;   15.21000;  124.20600;  149.20599;   71.87310;   -0.00038;   -3.98235;   60.39300;   60.38050;   61.21420;   61.21420;    0.33917
   -0.00036;    0.00000;   15.47000;  129.43800;  154.43800;   73.00680;    0.00001;   -4.90519;   61.23840;   61.23260;   62.15330;   62.15330;    0.33749
   -0.00036;    0.00000;   15.73000;  134.75101;  159.75101;   74.12280;    0.00009;   -4.98440;   62.25040;   62.26920;   63.08220;   63.08220;    0.33697
   -0.00037;   -0.00000;   15.99000;  140.14400;  165.14400;   75.20750;   -0.00011;   -5.17131;   63.18220;   63.17770;   63.98820;   63.98820;    0.33815
   -0.00034;    0.00000;   16.23200;  145.23300;  170.23300;   76.17330;    0.00011;   -5.29230;   63.98180;   63.99260;   64.80630;   64.77810;    0.33806
   -0.00034;    0.00000;   16.47400;  150.38400;  175.38499;   77.08440;    0.00001;   -5.23167;   64.75150;   64.75670;   65.53080;   65.57400;    0.33774
   -0.00034;    0.00000;   16.71600;  155.59500;  180.59500;   77.92850;   -0.00003;   -4.88880;   65.46860;   65.44670;   66.26060;   66.25760;    0.33974
   -0.00034;   -0.00000;   16.95800;  160.86000;  185.86000;   78.69220;   -0.00012;   -4.52719;   66.11420;   66.11370;   66.88000;   66.91240;    0.33925
   -0.00034;   -0.00000;   17.20000;  166.17300;  191.17300;   79.36440;   -0.00005;   -4.06041;   66.67090;   66.67460;   67.44030;   67.41260;    0.33663
   -0.00033;    0.00001;   17.44200;  171.52800;  196.52800;   79.93130;    0.00044;   -3.18318;   67.15770;   67.14350;   67.94290;   67.89320;    0.33575
   -0.00034;   -0.00000;   17.68400;  176.91701;  201.91800;   80.38310;   -0.00002;   -1.97625;   67.53720;   67.53590;   68.29850;   68.31800;    0.33740
   -0.00034;    0.00000;   17.92600;  182.33200;  207.33299;   80.70450;    0.00003;   -1.12067;   67.79240;   67.79080;   68.60460;   68.55980;    0.34154
   -0.00617;   -0.01952;   18.16800;  187.76500;  212.76500;   80.90420;   -0.21410;   -0.27932;   67.73130;   68.22360;   68.52660;   68.94050;    0.33665
   -0.00309;   -0.01530;   18.41000;  193.20799;  218.20799;   81.06240;   -0.12064;   -0.24946;   67.81140;   68.40420;   68.62450;   69.13270;    0.33769
   -0.00276;   -0.01708;   18.65200;  198.66299;  223.66400;   81.21700;   -0.11565;   -0.55106;   67.96150;   68.49600;   68.78210;   69.23250;    0.33491
   -0.00155;   -0.01471;   18.89400;  204.12900;  229.12900;   81.39900;   -0.11430;   -0.70920;   68.10720;   68.68130;   68.90710;   69.40720;    0.33801
   -0.00132;   -0.01440;   19.13600;  209.60800;  234.60800;   81.57990;   -0.09300;   -0.76420;   68.25140;   68.83250;   69.06200;   69.55670;    0.33770
   -0.00096;   -0.01364;   19.37800;  215.09700;  240.09700;   81.76620;   -0.08763;   -0.95701;   68.40180;   69.00100;   69.20690;   69.72840;    0.33851
   -0.00118;   -0.01436;   19.59800;  220.09801;  245.09801;   81.94160;   -0.10296;   -1.01903;   68.58780;   69.11720;   69.37040;   69.85270;    0.33767
   -0.00131;   -0.01483;   19.81800;  225.11099;  250.11099;   82.11050;   -0.11692;   -1.05296;   68.69010;   69.29240;   69.49100;   70.01270;    0.33674
   -0.00115;   -0.01444;   20.03800;  230.13300;  255.13300;   82.28400;   -0.08307;   -1.21855;   68.84660;   69.41290;   69.65380;   70.14060;    0.33781
   -0.00112;   -0.01433;   20.25800;  235.16600;  260.16599;   82.45110;   -0.10107;   -1.16251;   68.99270;   69.55950;   69.77940;   70.29210;    0.33774
   -0.00108;   -0.01426;   20.47800;  240.20900;  265.20901;   82.61190;   -0.10323;   -1.15045;   69.10730;   69.71550;   69.90390;   70.43800;    0.33779
   -0.00107;   -0.01431;   20.69800;  245.26199;  270.26199;   82.76670;   -0.08998;   -1.19000;   69.24420;   69.84390;   70.03380;   70.56510;    0.33772
   -0.00105;   -0.01428;   20.91800;  250.32300;  275.32401;   82.91510;   -0.10831;   -1.09795;   69.36240;   69.96920;   70.16280;   70.68670;    0.33778
   -0.00111;   -0.01438;   21.13800;  255.39400;  280.39401;   83.04870;   -0.10216;   -1.01515;   69.47970;   70.06760;   70.26900;   70.80110;    0.33745
   -0.00106;   -0.01434;   21.35800;  260.47198;  285.47299;   83.17380;   -0.08592;   -1.05130;   69.57950;   70.17510;   70.38960;   70.89400;    0.33769
   -0.00098;   -0.01406;   21.57800;  265.55801;  290.55899;   83.28860;   -0.08852;   -0.82993;   69.69940;   70.26860;   70.49010;   70.98410;    0.33823
   -0.00100;   -0.01412;   21.79800;  270.64999;  295.65100;   83.37890;   -0.08744;   -0.71621;   69.77560;   70.34230;   70.56060;   71.06530;    0.33759
   -0.00101;   -0.01435;   22.01800;  275.74799;  300.74799;   83.46550;   -0.09539;   -0.69431;   69.82800;   70.42520;   70.62060;   71.14670;    0.33766
   -0.00135;   -0.01521;   22.23800;  280.85001;  305.85001;   83.52500;   -0.13054;   -0.24307;   69.88700;   70.47210;   70.67650;   71.18830;    0.33647
   -0.00105;   -0.01442;   22.45800;  285.95499;  310.95499;   83.56780;   -0.07998;   -0.30430;   69.91050;   70.51350;   70.70640;   71.23550;    0.33768
    0.00061;   -0.00955;   22.67800;  291.06201;  316.06201;   83.58820;   -0.10128;   -0.30558;   69.92480;   70.54270;   70.67490;   71.22690;    0.33696
    0.00191;    0.00002;   22.89800;  296.17001;  321.17099;   83.58890;   -0.01160;   -0.42876;   70.23860;   70.22990;   70.95390;   70.98590;    0.33774
    0.00095;   -0.00001;   23.11800;  301.27899;  326.27899;   83.61050;   -0.00568;   -1.09638;   70.25590;   70.24690;   70.96220;   70.94670;    0.33899
    0.00062;    0.00024;   23.33800;  306.39001;  331.39001;   83.62280;    0.00289;   -1.33083;   70.26780;   70.25510;   70.96280;   70.95880;    0.33487
    0.00022;    0.00007;   23.55800;  311.50101;  336.50101;   83.68340;    0.00124;   -1.85775;   70.31560;   70.30780;   71.02020;   71.00210;    0.33794
    0.00023;   -0.00002;   23.77800;  316.61801;  341.61801;   83.73570;   -0.00027;   -2.54731;   70.35550;   70.35670;   71.00120;   71.00280;    0.33858
    0.00025;    0.00018;   23.99800;  321.73401;  346.73499;   83.74110;    0.00111;   -2.65047;   70.36240;   70.35990;   71.00650;   71.00420;    0.33647
    0.00004;    0.00021;   24.21800;  326.85199;  351.85199;   83.76760;    0.00250;   -2.90963;   70.38690;   70.37960;   71.03120;   71.02410;    0.33789
   -0.00012;   -0.00011;   24.43800;  331.97299;  356.97400;   83.82070;   -0.00237;   -3.33731;   70.42500;   70.42970;   71.07020;   71.07400;    0.33846
   -0.00000;    0.00007;   24.65800;  337.09698;  362.09799;   83.89100;   -0.00037;   -3.48384;   70.48620;   70.48760;   71.13040;   71.13240;    0.33768
   -0.00001;   -0.00010;   24.87800;  342.22699;  367.22800;   83.98310;   -0.00133;   -3.85190;   70.55810;   70.56430;   71.20660;   71.21190;    0.33756
   -0.00005;   -0.00021;   25.09800;  347.36301;  372.36301;   84.09140;   -0.00326;   -3.93021;   70.65170;   70.65700;   71.29810;   71.30380;    0.33816
   -0.00006;   -0.00025;   25.31800;  352.50601;  377.50601;   84.20880;   -0.00257;   -4.08588;   70.75280;   70.75570;   71.39900;   71.40140;    0.33794
   -0.00003;   -0.00017;   25.53800;  357.65601;  382.65601;   84.33550;   -0.00262;   -4.17686;   70.85600;   70.86110;   71.50570;   71.50960;    0.33745
    0.00000;   -0.00003;   25.75800;  362.81400;  387.81400;   84.46750;   -0.00067;   -4.21232;   70.96860;   70.97020;   71.61900;   71.62000;    0.33784
   -0.00001;   -0.00005;   25.97800;  367.98001;  392.98001;   84.59990;   -0.00015;   -4.22570;   71.08210;   71.07940;   71.73230;   71.73120;    0.33771
   -0.00004;   -0.00013;   26.19800;  373.15399;  398.15399;   84.73120;   -0.00126;   -4.19322;   71.19020;   71.19150;   71.84280;   71.84340;    0.33834
   -0.00005;   -0.00019;   26.41800;  378.33600;  403.33600;   84.85540;   -0.00228;   -4.17268;   71.29320;   71.29770;   71.94710;   71.95010;    0.33764
   -0.00005;   -0.00022;   26.63800;  383.52499;  408.52499;   84.97060;   -0.00261;   -3.99611;   71.39170;   71.39360;   72.04460;   72.04850;    0.33726
   -0.00006;   -0.00019;   26.85800;  388.72101;  413.72101;   85.07600;   -0.00102;   -3.90401;   71.48040;   71.47960;   72.13630;   72.13560;    0.33899
   -0.00000;    0.00003;   27.07800;  393.92300;  418.92300;   85.16200;    0.00050;   -3.76384;   71.55450;   71.55280;   72.21050;   72.20780;    0.33752
    0.00006;    0.00006;   27.29800;  399.13000;  424.13000;   85.22790;    0.00113;   -3.29075;   71.61030;   71.60970;   72.26580;   72.26520;    0.33682
    0.00003;    0.00001;   27.51800;  404.34000;  429.34000;   85.27580;    0.00005;   -3.13878;   71.65060;   71.65020;   72.30660;   72.30640;    0.33789
    0.00001;    0.00001;   27.73800;  409.54999;  434.54999;   85.29460;    0.00005;   -2.97754;   71.66690;   71.66600;   72.32280;   72.32240;    0.33741
   -0.00008;   -0.00000;   27.95800;  414.76001;  439.76001;   85.27960;    0.00026;   -2.42506;   71.65560;   71.65260;   72.31200;   72.30890;    0.33644
   -0.00009;   -0.00001;   28.17800;  419.96899;  444.97000;   85.23760;    0.00012;   -1.90317;   71.61950;   71.61910;   72.27560;   72.27510;    0.33658
    0.00001;    0.00014;   28.39800;  425.17599;  450.17700;   85.16030;    0.00293;   -1.48571;   71.55690;   71.55200;   72.21250;   72.20810;    0.33938
   -0.00002;   -0.00000;   28.61800;  430.33600;  455.33701;   81.70610;   -0.00019;   -0.95904;   66.16030;   66.15950;   68.29310;   68.27370;    0.33856
   -0.00012;   -0.00036;   28.86000;  435.51300;  460.51300;   72.36590;   -0.00452;   -0.40231;   58.72010;   58.79280;   60.77340;   60.77340;    0.33845
   -0.00119;   -0.00358;   29.14600;  440.83899;  465.83899;   61.80560;    0.00202;   -0.00881;   49.96180;   49.99410;   51.94190;   51.94190;    0.34420
   -0.01044;   -0.03594;   29.47600;  445.96201;  470.96201;   50.04270;   -0.58039;    0.03725;   39.27610;   40.89150;   42.08970;   42.08970;    0.34211
   -0.01138;   -0.03491;   29.91600;  451.14499;  476.14499;   34.85680;   -0.49706;    0.01901;   28.23710;   27.84050;   29.42750;   29.42750;    0.34249
   -0.01326;   -0.03415;   30.66400;  456.16299;  481.16299;   19.25550;   -0.31642;    0.07590;   15.86750;   14.64280;   16.44540;   16.44540;    0.33959
   -0.01502;   -0.03488;   31.58800;  461.22299;  486.22299;   20.10770;   -0.34452;    0.00401;   17.52570;   18.85830;   17.39060;   17.39060;    0.33965
   -0.01594;   -0.03490;   32.50600;  466.24899;  491.24899;   19.53510;   -0.34311;   -0.01454;   16.56800;   14.56760;   16.42310;   16.42310;    0.34018
   -0.01661;   -0.03503;   33.42600;  471.28601;  496.28601;   19.83800;   -0.36018;    0.04755;   16.97550;   18.39280;   17.49930;   17.49930;    0.33998
   -0.01721;   -0.03548;   34.32600;  476.35300;  501.35300;   21.91160;   -0.38156;   -0.04331;   16.55330;   18.51540;   19.07040;   19.07040;    0.33971
   -0.01774;   -0.03717;   35.08600;  481.41199;  506.41299;   26.08270;   -0.47401;    0.06841;   18.84390;   22.11960;   22.31060;   22.31060;    0.33968
   -0.01760;   -0.03689;   35.74600;  486.54599;  511.54700;   29.96280;   -0.51423;    0.00176;   22.17320;   26.56710;   25.67720;   25.67720;    0.33962
   -0.00480;   -0.00106;   36.32600;  491.66000;  516.66101;   33.54060;   -0.06247;   -0.08642;   27.33330;   29.16560;   28.70280;   28.70280;    0.33894
   -0.00308;   -0.00040;   36.84600;  496.74701;  521.74701;   36.86370;   -0.05262;   -0.12531;   31.76920;   31.43810;   31.54660;   31.54660;    0.33885
   -0.00210;   -0.00003;   37.32600;  501.86801;  526.86798;   39.92240;   -0.05031;   -0.25372;   34.29410;   33.44970;   34.16710;   34.16710;    0.33781
   -0.00158;    0.00019;   37.76600;  506.92200;  531.92200;   42.76080;   -0.04448;   -0.45378;   35.90480;   36.02160;   36.58310;   36.58310;    0.33877
   -0.00121;    0.00028;   38.18600;  512.06897;  537.06897;   45.44300;   -0.03892;   -0.42034;   38.16560;   37.79790;   38.86110;   38.86110;    0.33869
   -0.00098;    0.00038;   38.58600;  517.25598;  542.25702;   47.91980;   -0.03367;   -0.55194;   40.25450;   39.91830;   40.97020;   40.97020;    0.33711
   -0.00082;    0.00036;   38.96600;  522.43799;  547.43799;   50.23490;   -0.02732;   -0.68591;   42.21260;   42.21940;   42.94260;   42.94260;    0.33867
   -0.00067;    0.00036;   39.32600;  527.56897;  552.56897;   52.36350;   -0.02149;   -0.70893;   43.97350;   44.01410;   44.74960;   44.74960;    0.33860
   -0.00051;    0.00036;   39.66600;  532.60699;  557.60699;   54.30340;   -0.01715;   -0.93477;   45.60730;   45.60460;   46.39350;   46.39350;    0.33676
   -0.00036;    0.00029;   40.00600;  537.82599;  562.82599;   56.19520;   -0.00624;   -0.96561;   47.19930;   47.21930;   47.99590;   47.99590;    0.33854
   -0.00022;    0.00029;   40.32600;  542.89801;  567.89801;   57.90130;    0.00168;   -1.04711;   48.63830;   48.66880;   49.44060;   49.44060;    0.33844
   -0.00006;    0.00021;   40.64600;  548.11798;  573.11902;   59.53560;    0.01148;   -1.10704;   49.99970;   50.00580;   50.81830;   50.81830;    0.33752
    0.00010;    0.00019;   40.94600;  553.14203;  578.14301;   61.01350;    0.02206;   -1.16838;   51.26840;   51.26530;   52.06660;   52.06660;    0.33837
    0.00027;    0.00016;   41.24600;  558.28601;  583.28699;   62.43010;    0.03291;   -1.20625;   52.45730;   52.44890;   53.26160;   53.26160;    0.33835
    0.00044;    0.00015;   41.54600;  563.54602;  588.54700;   63.78520;    0.04512;   -1.25195;   53.59280;   53.59380;   54.40430;   54.40430;    0.33826
    0.00061;    0.00004;   41.82600;  568.55499;  593.55499;   64.99550;    0.05733;   -1.30806;   54.61000;   54.59710;   55.42390;   55.42390;    0.33825
    0.00077;   -0.00001;   42.10600;  573.65601;  598.65601;   66.15370;    0.06790;   -1.29071;   55.56210;   55.58120;   56.39880;   56.39880;    0.33810
    0.00093;   -0.00005;   42.38600;  578.84497;  603.84497;   67.25920;    0.07953;   -1.25327;   56.49640;   56.50350;   57.32850;   57.32850;    0.33848
    0.00111;   -0.00007;   42.66600;  584.11700;  609.11798;   68.30420;    0.09158;   -1.20034;   57.38080;   57.38550;   58.20750;   58.20750;    0.33820
    0.00128;   -0.00008;   42.94600;  589.46899;  614.46997;   69.30290;    0.10576;   -1.26656;   58.22980;   58.22830;   59.04900;   59.04900;    0.33806
    0.00140;   -0.00012;   43.20600;  594.50702;  619.50702;   70.18290;    0.11039;   -1.05141;   58.96180;   58.96590;   59.76310;   59.76310;    0.33780
    0.00155;   -0.00016;   43.46600;  599.60602;  624.60602;   71.00590;    0.12762;   -1.07679;   59.64830;   59.65420;   60.47820;   60.47820;    0.33811
    0.00168;   -0.00026;   43.72600;  604.76300;  629.76300;   71.79470;    0.13806;   -1.08160;   60.32090;   60.31030;   61.14030;   61.14030;    0.33806
    0.00175;   -0.00043;   43.98600;  609.97498;  634.97601;   72.53470;    0.13196;   -0.71358;   60.93080;   60.94450;   61.73850;   61.73850;    0.33710
    0.00191;   -0.00026;   44.24600;  615.23901;  640.23999;   73.21580;    0.15500;   -0.78003;   61.50560;   61.51430;   62.33120;   62.33120;    0.33802
    0.00202;   -0.00030;   44.50600;  620.55103;  645.55103;   73.86030;    0.16697;   -0.80440;   62.04390;   62.04430;   62.86950;   62.86950;    0.33797
    0.00201;   -0.00055;   44.76600;  625.90698;  650.90698;   74.43810;    0.15056;   -0.20802;   62.53440;   62.54470;   63.34570;   63.34570;    0.33674
    0.00232;   -0.00025;   45.02600;  631.08502;  656.08600;   67.15260;    0.19289;   -0.23197;   53.93740;   54.31960;   56.39560;   56.39560;    0.34138
    0.00263;   -0.00003;   45.32600;  636.22400;  661.22498;   56.29440;    0.16806;   -0.20206;   45.54720;   45.47630;   47.35130;   47.35130;    0.34172
    0.01314;    0.03255;   45.70600;  641.46301;  666.46399;   43.03290;    0.63334;   -0.00248;   35.70180;   34.40170;   36.22930;   36.22930;    0.34290
    0.01449;    0.03170;   46.24600;  646.53003;  671.53003;   24.51840;    0.43266;    0.00142;   20.00460;   16.28270;   20.55650;   20.55650;    0.34357
    0.01540;    0.02940;   47.14600;  651.54797;  676.54901;   19.93390;    0.34330;   -0.04014;   16.96490;   15.70590;   17.70370;   17.70370;    0.34036
    0.01637;    0.02977;   48.06600;  656.58502;  681.58600;   19.58910;    0.34182;    0.05521;   13.97830;   15.51450;   16.98220;   16.98220;    0.34082
    0.01686;    0.02993;   48.98600;  661.62903;  686.63000;   20.02660;    0.34405;    0.08241;   17.69200;   14.80700;   16.95130;   16.95130;    0.34033
    0.01708;    0.03024;   49.90600;  666.67200;  691.67200;   19.59510;    0.34670;   -0.06632;   15.46640;   16.20700;   16.62300;   16.62300;    0.34059
    0.01707;    0.02994;   50.82600;  671.70898;  696.71002;   20.07840;    0.33508;    0.00373;   15.86900;   13.29940;   17.51270;   17.51270;    0.34014
    0.01717;    0.03054;   51.74600;  676.75299;  701.75299;   19.64780;    0.34181;    0.03113;   14.00320;   15.32240;   17.20590;   17.20590;    0.34071
    0.01699;    0.03057;   52.66600;  681.79498;  706.79602;   20.00350;    0.33902;    0.02457;   17.31530;   18.92470;   17.05350;   17.05350;    0.34015
    0.01711;    0.03123;   53.58600;  686.83197;  711.83197;   19.65960;    0.31665;    0.01448;   16.96760;   14.43550;   16.54830;   16.54830;    0.34047
    0.01669;    0.03066;   54.50600;  691.88000;  716.88098;   20.13500;    0.33718;    0.04049;   16.45640;   14.73740;   16.43510;   16.43510;    0.34009
    0.01657;    0.03052;   55.42600;  696.91602;  721.91699;   19.68220;    0.32882;   -0.06426;   14.64740;   15.48940;   17.20320;   17.20320;    0.34021
    0.01658;    0.03114;   56.34600;  701.96198;  726.96198;   20.16630;    0.33476;   -0.00303;   14.90200;   16.56420;   16.77490;   16.77490;    0.33989
    0.01656;    0.03154;   57.26600;  706.99500;  731.99500;   19.70630;    0.32570;   -0.06329;   18.55540;   15.97440;   16.07200;   16.07200;    0.34021
    0.01633;    0.03114;   58.18600;  712.04303;  737.04303;   20.13700;    0.32655;   -0.00276;   16.70400;   14.87070;   17.84370;   17.84370;    0.33982
    0.01611;    0.03094;   59.10600;  717.08398;  742.08398;   19.76840;    0.32218;   -0.02056;   16.60760;   16.31690;   16.12700;   16.12700;    0.34012
    0.01607;    0.03135;   60.02600;  722.11603;  747.11603;   19.37880;    0.30560;    0.04284;   13.36620;   16.30880;   16.78020;   16.78020;    0.33996
    0.01602;    0.03153;   60.94600;  727.15601;  752.15601;   19.74420;    0.30735;   -0.07478;   16.15550;   17.76230;   16.53610;   16.53610;    0.34007
    0.01580;    0.03112;   61.86600;  732.19299;  757.19299;   19.43350;    0.30359;    0.06712;   15.31560;   13.92450;   16.37530;   16.37530;    0.33988
    0.01571;    0.03127;   62.78600;  737.22900;  762.22998;   19.76520;    0.31881;    0.01043;   13.95450;   18.32890;   17.57490;   17.57490;    0.34015
    0.01576;    0.03162;   63.70600;  742.27100;  767.27197;   19.42780;    0.31161;    0.08038;   15.54630;   14.50290;   16.40200;   16.40200;    0.34035
    0.02372;    0.05301;   64.62400;  747.28900;  772.28900;   19.42010;    0.49020;    0.04156;   16.94370;   17.37320;   16.21330;   16.21330;    0.34033
    0.02445;    0.05276;   65.54800;  752.34497;  777.34497;   19.39730;    0.50168;    0.05368;   17.86720;   14.17190;   16.37920;   16.37920;    0.34038
    0.02500;    0.05308;   66.47200;  757.40399;  782.40399;   19.40100;    0.50370;    0.04117;   16.62790;   13.65800;   16.33280;   16.33280;    0.34037
    0.02530;    0.05343;   67.39600;  762.46600;  787.46600;   19.40220;    0.49102;    0.07117;   16.49110;   13.98310;   15.61480;   15.61480;    0.33994
    0.02555;    0.05409;   68.32000;  767.52002;  792.52100;   19.29710;    0.49250;    0.06485;   16.47160;   14.98220;   16.40380;   16.40380;    0.33977
    0.02567;    0.05467;   69.24400;  772.57098;  797.57098;   19.28370;    0.46709;    0.06033;   15.63610;   14.30370;   16.63720;   16.63720;    0.33993
    0.02537;    0.05357;   70.16800;  777.62799;  802.62903;   20.14290;    0.49868;   -0.02471;   15.14900;   16.15100;   16.96540;   16.96540;    0.33979
    0.02565;    0.05495;   71.09200;  782.67798;  807.67902;   19.16050;    0.47995;    0.05632;   16.57160;   15.94150;   16.46590;   16.46590;    0.33991
    0.02518;    0.05343;   72.01600;  787.72498;  812.72498;   20.01870;    0.50326;    0.01617;   15.20870;   18.76080;   16.69560;   16.69560;    0.33979
    0.02502;    0.05300;   72.94000;  792.77301;  817.77399;   19.98120;    0.48719;   -0.04063;   16.86330;   18.09820;   16.81300;   16.81300;    0.33981
    0.02507;    0.05372;   73.86400;  797.82599;  822.82703;   19.98620;    0.50622;   -0.01244;   15.37650;   16.75030;   16.49810;   16.49810;    0.33983
    0.02533;    0.05519;   74.70000;  802.95099;  827.95203;   24.21990;    0.61401;    0.00025;   18.23920;   22.41810;   20.60960;   20.60960;    0.33949
    0.00759;    0.00454;   75.40400;  808.07800;  833.07800;   28.28560;    0.08457;   -0.06702;   21.84500;   23.86100;   24.27040;   24.27040;    0.33911
    0.00382;    0.00100;   76.02000;  813.23602;  838.23700;   32.10200;    0.03080;   -0.19674;   25.61750;   25.52280;   27.47690;   27.47690;    0.33904
    0.00221;    0.00062;   76.57000;  818.40503;  843.40503;   35.61270;    0.02249;   -0.19944;   30.06010;   28.55910;   30.42740;   30.42740;    0.33900
    0.00137;    0.00020;   77.07600;  823.64001;  848.64001;   38.88380;    0.01939;   -0.31528;   32.19170;   33.89080;   33.26980;   33.26980;    0.33891
    0.00086;    0.00001;   77.53800;  828.82599;  853.82599;   41.90110;    0.01818;   -0.45588;   35.40960;   35.20180;   35.84320;   35.84320;    0.33886
    0.00060;   -0.00009;   77.95600;  833.84900;  858.84900;   44.60370;    0.01585;   -0.57836;   37.47590;   37.35510;   38.15870;   38.15870;    0.33874
    0.00045;   -0.00003;   78.35200;  838.89502;  863.89502;   47.11540;    0.01445;   -0.63347;   39.60060;   39.54150;   40.29300;   40.29300;    0.33872
    0.00035;   -0.00020;   78.72600;  843.90997;  868.91101;   49.42230;    0.01289;   -0.68378;   41.55190;   41.51610;   42.25390;   42.25390;    0.33869
    0.00030;   -0.00016;   79.10000;  849.16199;  874.16199;   51.65750;    0.01178;   -0.78354;   43.39440;   43.36630;   44.15140;   44.15140;    0.33859
    0.00027;   -0.00004;   79.45200;  854.31299;  879.31403;   53.68800;    0.01030;   -0.80096;   45.09690;   45.09950;   45.87350;   45.87350;    0.33855
    0.00023;   -0.00011;   79.78200;  859.32001;  884.32001;   55.52110;    0.00933;   -0.81419;   46.64900;   46.60680;   47.42640;   47.42640;    0.33855
    0.00018;   -0.00010;   80.11200;  864.49103;  889.49103;   57.27290;    0.00817;   -0.86717;   48.10000;   48.09860;   48.90850;   48.90850;    0.33854
    0.00015;    0.00001;   80.44200;  869.81799;  894.81897;   58.93990;    0.00606;   -0.78807;   49.52970;   49.51540;   50.31640;   50.31640;    0.33876
    0.00011;   -0.00024;   80.75000;  874.92499;  899.92499;   60.41850;    0.00445;   -0.68215;   50.76190;   50.77550;   51.56530;   51.56530;    0.33888
    0.00009;   -0.00004;   81.05800;  880.15503;  905.15601;   61.82180;    0.00149;   -0.67333;   51.92920;   51.93210;   52.74900;   52.74900;    0.33909
    0.00009;    0.00013;   81.36600;  885.46002;  910.46100;   59.70570;    0.00565;   -0.45119;   48.33160;   48.37200;   50.18290;   50.18290;    0.34124
    0.00000;   -0.00015;   81.71800;  890.69098;  915.69202;   47.39360;    0.00072;   -0.33963;   38.38470;   38.43860;   39.95940;   39.95940;    0.34315
    0.00004;    0.00001;   82.18000;  895.76001;  920.76099;   31.70590;    0.00029;   -0.19184;   24.77950;   22.77750;   26.69820;   26.69820;    0.34362
    0.00001;   -0.00027;   82.99400;  900.78998;  925.79102;   19.91860;    0.00675;   -0.07930;   15.31060;   17.24260;   17.82240;   17.82240;    0.34092
    0.00792;    0.02331;   83.91800;  905.83698;  930.83801;   20.00060;    0.12845;   -0.03220;   18.72840;   17.77320;   16.59720;   16.59720;    0.34010
    0.02396;    0.06190;   84.84200;  910.88702;  935.88702;   20.02390;    0.57600;   -0.00812;   15.66110;   14.67530;   17.26870;   17.26870;    0.33938
    0.02672;    0.06416;   85.76600;  915.94397;  940.94397;   19.87800;    0.58297;   -0.01939;   17.19900;   14.75460;   17.66500;   17.66500;    0.33966
    0.02800;    0.06434;   86.69000;  921.00403;  946.00403;   19.79440;    0.58596;    0.04049;   16.78900;   15.39980;   17.71350;   17.71350;    0.33981
    0.02883;    0.06493;   87.61400;  926.04700;  951.04797;   19.76230;    0.60152;   -0.02940;   17.91820;   13.40710;   16.56730;   16.56730;    0.33968
    0.02931;    0.06579;   88.53800;  931.09802;  956.09802;   19.62740;    0.61356;    0.03495;   17.80910;   13.90540;   16.56480;   16.56480;    0.33992
    0.02958;    0.06613;   89.46200;  936.15399;  961.15399;   19.58310;    0.57695;   -0.06450;   17.11330;   12.76740;   16.34050;   16.34050;    0.33991
    0.02910;    0.06484;   90.38600;  941.20398;  966.20398;   19.47510;    0.59495;   -0.00530;   15.19360;   16.39870;   15.98460;   15.98460;    0.33991
    0.02940;    0.06582;   91.31000;  946.25897;  971.26001;   19.32810;    0.58451;   -0.01158;   15.94820;   16.97600;   16.95790;   16.95790;    0.33985
    0.02971;    0.06609;   92.23400;  951.31897;  976.31897;   19.29770;    0.51988;    0.05698;   16.63450;   13.29070;   16.48510;   16.48510;    0.33952
    0.03009;    0.06768;   93.09200;  956.41302;  981.41400;   23.48720;    0.69471;   -0.00405;   20.22460;   20.93190;   20.06360;   20.06360;    0.33921
    0.00683;    0.00302;   93.81800;  961.54901;  986.54901;   27.45500;    0.04525;    0.35588;   22.76650;   22.20730;   23.26950;   23.26950;    0.33911
    0.00350;    0.00161;   94.45600;  966.71002;  991.71100;   30.73490;    0.02074;    1.18602;   27.62670;   24.99260;   26.45280;   26.45280;    0.34005
    0.00178;    0.00071;   95.02800;  971.82001;  996.82001;   33.47870;    0.01192;    1.91699;   29.36510;   27.85830;   28.69800;   28.69800;    0.34092
    0.00094;    0.00040;   95.55600;  976.90399; 1001.90002;   35.81540;    0.00517;    2.51555;   29.41600;   29.14420;   30.64770;   30.64770;    0.34153
    0.00045;   -0.00000;   96.06200;  982.07703; 1007.08002;   37.78100;    0.00319;    2.90872;   30.78310;   32.09940;   32.34590;   32.34590;    0.34181
    0.00030;    0.00012;   96.54600;  987.27301; 1012.27002;   39.49800;    0.00250;    3.54309;   33.15270;   31.61640;   33.77910;   33.77910;    0.34218
    0.00013;   -0.00001;   97.00800;  992.43402; 1017.42999;   40.93840;   -0.00105;    3.95299;   35.06930;   33.51290;   35.06860;   35.06860;    0.34192
    0.00005;   -0.00015;   97.44800;  997.51703; 1022.52002;   42.21920;   -0.00141;    4.31080;   34.98730;   35.41240;   36.10460;   36.10460;    0.34092
    0.00005;   -0.00008;   97.88800; 1002.75000; 1027.75000;   43.39740;    0.00214;    4.51253;   36.34640;   36.45120;   37.12940;   37.12940;    0.33996
    0.00006;   -0.00002;   98.30600; 1007.84998; 1032.84998;   44.46830;   -0.00236;    4.65050;   37.36150;   37.40130;   38.05010;   38.05010;    0.33852
    0.00004;    0.00016;   98.72400; 1013.08002; 1038.07996;   45.52120;    0.00361;    4.77788;   38.28990;   38.25970;   38.94070;   38.94070;    0.33754
    0.00000;   -0.00019;   99.12000; 1018.14001; 1043.14001;   46.51910;    0.00038;    4.71388;   39.02680;   39.08010;   39.78700;   39.78700;    0.33652
    0.00003;   -0.00005;   99.51600; 1023.31000; 1048.31006;   47.53870;   -0.00233;    4.50377;   39.90910;   39.94070;   40.65520;   40.65520;    0.33606
    0.00002;    0.00010;   99.91200; 1028.59998; 1053.59998;   48.61310;    0.00300;    4.21421;   40.84030;   40.71680;   41.56690;   41.56690;    0.33634
    0.00002;   -0.00008;  100.28600; 1033.70996; 1058.70996;   49.69880;   -0.00142;    3.91129;   41.75330;   41.75390;   42.48970;   42.48970;    0.33606
   -0.00001;   -0.00005;  100.66000; 1038.93005; 1063.93005;   50.88410;    0.00287;    3.41119;   42.79940;   42.78340;   43.49840;   43.49840;    0.33752
   -0.00000;    0.00011;  101.01200; 1043.95996; 1068.95996;   52.11460;    0.00163;    2.92793;   43.84200;   43.79620;   44.53920;   44.53920;    0.33735
    0.00002;    0.00008;  101.36400; 1049.13000; 1074.13000;   53.48060;    0.00289;    1.94110;   44.90900;   44.90300;   45.69700;   45.69700;    0.33743
   -0.00001;   -0.00013;  101.71600; 1054.43005; 1079.43005;   54.97550;    0.00084;    0.61212;   46.06220;   46.04920;   47.78940;   47.78940;    0.34107
    0.00000;    0.00007;  102.04600; 1059.54004; 1084.54004;   56.54990;    0.00116;   -0.11250;   47.46040;   47.45780;   48.44790;   48.44790;    0.33904
   -0.00001;    0.00004;  102.37600; 1064.80005; 1089.80005;   58.14860;   -0.00095;   -0.41737;   48.83210;   48.83390;   49.67040;   49.67040;    0.33925
   -0.00001;   -0.00000;  102.68400; 1069.83997; 1094.83997;   59.62310;    0.00073;   -0.74535;   50.07460;   50.07340;   50.91520;   50.91520;    0.33913
   -0.00002;   -0.00008;  102.99200; 1075.00000; 1100.00000;   61.08260;    0.00058;   -1.01472;   51.28510;   51.28390;   52.13860;   52.13860;    0.33920
   -0.00001;    0.00000;  103.30000; 1080.29004; 1105.29004;   62.52300;   -0.00100;   -1.32681;   52.50110;   52.50300;   53.34630;   53.34630;    0.33887
   -0.00001;    0.00000;  103.58600; 1085.31006; 1110.31006;   63.84220;   -0.00071;   -1.66736;   53.59880;   53.60010;   54.45900;   54.45900;    0.33899
   -0.00002;   -0.00002;  103.87200; 1090.43005; 1115.43005;   65.13990;   -0.00116;   -1.81405;   54.71770;   54.71990;   55.54930;   55.54930;    0.33876
   -0.00003;   -0.00008;  104.15800; 1095.66003; 1120.66003;   66.41610;   -0.00094;   -2.19169;   55.78120;   55.78300;   56.62110;   56.62110;    0.33881
   -0.00003;   -0.00012;  104.44400; 1100.98999; 1125.98999;   67.66640;    0.00002;   -2.38166;   56.86350;   56.86340;   57.67210;   57.67210;    0.33866
   -0.00001;    0.00011;  104.70800; 1105.98999; 1130.98999;   68.79860;    0.00000;   -2.64446;   57.80960;   57.80300;   58.62430;   58.62430;    0.33856
   -0.00002;   -0.00011;  104.97200; 1111.07996; 1136.07996;   69.90750;   -0.00060;   -2.88331;   58.71490;   58.72880;   59.55440;   59.55440;    0.33852
    0.00000;    0.00016;  105.23600; 1116.23999; 1141.23999;   70.99040;   -0.00003;   -3.10648;   59.62350;   59.64450;   60.46390;   60.46390;    0.33837
   -0.00002;   -0.00012;  105.50000; 1121.48999; 1146.48999;   72.04740;    0.00049;   -3.32308;   60.50930;   60.50110;   61.34920;   61.34920;    0.33844
   -0.00000;    0.00002;  105.76400; 1126.81006; 1151.81006;   73.07510;   -0.00134;   -3.53474;   61.35960;   61.40170;   62.21020;   62.21020;    0.33799
    0.00001;    0.00019;  106.02800; 1132.19995; 1157.19995;   74.06360;    0.00067;   -3.63107;   62.21220;   62.22340;   63.03450;   63.03450;    0.33770
    0.00001;    0.00024;  106.27000; 1137.20996; 1162.20996;   74.93200;    0.00052;   -3.80128;   62.94680;   62.94130;   63.75820;   63.75820;    0.33777
    0.00001;    0.00016;  106.51200; 1142.28003; 1167.28003;   75.76390;   -0.00082;   -3.88776;   63.65180;   63.65280;   64.45290;   64.45290;    0.33775
   -0.00001;   -0.00004;  106.75400; 1147.40002; 1172.40002;   76.56100;   -0.00217;   -3.98021;   64.32000;   64.31790;   65.13920;   65.09630;    0.33780
   -0.00004;   -0.00021;  106.99600; 1152.56995; 1177.56995;   77.32300;   -0.00087;   -4.07968;   64.94760;   64.96840;   65.77020;   65.73590;    0.33783
   -0.00000;    0.00010;  107.23800; 1157.79004; 1182.79004;   78.04990;    0.00343;   -4.07192;   65.57660;   65.56880;   66.33840;   66.38200;    0.33797
    0.00001;   -0.00005;  107.48000; 1163.06006; 1188.06006;   78.74210;   -0.00269;   -4.08564;   66.15130;   66.16020;   66.91940;   66.95520;    0.33805
   -0.00002;    0.00000;  107.72200; 1168.38000; 1193.38000;   79.39920;    0.00409;   -4.10700;   66.71800;   66.70410;   67.50630;   67.46730;    0.33811
   -0.00001;   -0.00015;  107.96400; 1173.73999; 1198.73999;   80.02160;   -0.00346;   -4.14318;   67.21640;   67.23040;   68.01190;   67.99660;    0.33801
    0.00005;    0.00036;  108.20600; 1179.14001; 1204.14001;   80.60780;    0.00177;   -4.10056;   67.71370;   67.71420;   68.50110;   68.48860;    0.33780
   -0.00003;   -0.00011;  108.44800; 1184.57996; 1209.57996;   81.15780;    0.00383;   -3.98197;   68.19100;   68.17830;   68.97180;   68.92430;    0.33764
   -0.00005;   -0.00037;  108.69000; 1190.05005; 1215.05005;   81.67110;   -0.00343;   -3.86291;   68.61860;   68.61650;   69.35650;   69.39900;    0.33743
   -0.00004;   -0.00037;  108.91000; 1195.05005; 1220.05005;   82.10540;   -0.00426;   -3.65405;   68.97920;   68.98900;   69.75580;   69.72390;    0.33730
   -0.00007;   -0.00039;  109.13000; 1200.07996; 1225.07996;   82.50890;   -0.00263;   -3.60748;   69.31130;   69.32040;   70.07990;   70.07360;    0.33729
   -0.00004;   -0.00007;  109.35000; 1205.14001; 1230.14001;   82.88000;    0.00447;   -3.35888;   69.64220;   69.62930;   70.37400;   70.40020;    0.33718
    0.00009;    0.00036;  109.57000; 1210.20996; 1235.20996;   83.21970;    0.00389;   -3.25552;   69.91690;   69.90490;   70.67060;   70.67080;    0.33709
    0.00017;    0.00008;  109.79000; 1215.31006; 1240.31006;   83.52550;   -0.00055;   -2.97653;   70.17940;   70.18420;   70.93090;   70.92340;    0.33687
   -0.00021;   -0.00030;  110.01000; 1220.42004; 1245.42004;   83.71260;    0.00101;   -2.72527;   70.34260;   70.33540;   71.05010;   71.01730;    0.33683
    0.00006;   -0.00019;  110.23000; 1225.54004; 1250.54004;   83.73020;    0.00611;   -2.39525;   70.36000;   70.34380;   71.00490;   70.98820;    0.33687
    0.00011;   -0.00010;  110.45000; 1230.65002; 1255.65002;   83.72430;   -0.00728;   -2.07755;   70.33900;   70.35630;   71.03770;   71.03640;    0.33691
    0.00013;    0.00055;  110.67000; 1235.77002; 1260.77002;   83.72660;    0.00619;   -1.69584;   70.35570;   70.34310;   71.01250;   71.01000;    0.33686
   -0.00015;   -0.00040;  110.89000; 1240.89001; 1265.89001;   83.70460;    0.00238;   -1.40880;   70.33560;   70.32630;   71.01600;   71.02330;    0.33661
   -0.00012;   -0.00028;  111.11000; 1246.00000; 1271.00000;   83.69900;   -0.01062;   -1.03618;   70.31480;   70.33680;   71.02630;   71.02360;    0.33658
   -0.00019;    0.00047;  111.33000; 1251.10999; 1276.10999;   83.66770;    0.00460;   -0.59351;   70.30490;   70.29440;   71.01530;   70.98300;    0.33675
   -0.00036;    0.00037;  111.55000; 1256.21997; 1281.21997;   83.60360;    0.00525;   -0.18858;   70.25210;   70.24060;   70.98830;   70.97330;    0.33671
   -0.00066;    0.00008;  111.77000; 1261.32996; 1286.32996;   83.58020;    0.00081;    0.44639;   70.22780;   70.22420;   70.97330;   70.98530;    0.33636
   -0.00080;    0.00002;  111.99000; 1266.43005; 1291.43005;   83.53720;    0.00092;    1.03426;   70.19450;   70.19020;   70.95390;   70.93610;    0.33627
   -0.00072;   -0.00020;  112.21000; 1271.53003; 1296.53003;   83.44110;   -0.00234;    1.81793;   70.10670;   70.11350;   70.85560;   70.87570;    0.33639
   -0.00029;   -0.00047;  112.43000; 1276.63000; 1301.63000;   83.30100;   -0.00575;    2.29093;   69.98480;   70.00070;   70.74580;   70.75340;    0.33678
   -0.00029;    0.00015;  112.65000; 1281.70996; 1306.70996;   83.12510;    0.00355;    2.71664;   69.85130;   69.83860;   70.59520;   70.61240;    0.33695
   -0.00026;   -0.00029;  112.87000; 1286.79004; 1311.79004;   82.92150;   -0.00294;    3.15732;   69.66990;   69.67900;   70.42420;   70.44390;    0.33742
   -0.00013;    0.00030;  113.09000; 1291.84998; 1316.84998;   82.69820;    0.00676;    3.37231;   69.49780;   69.47910;   70.25390;   70.24190;    0.33757
   -0.00017;   -0.00033;  113.31000; 1296.89001; 1321.89001;   82.46260;   -0.00359;    3.60129;   69.28340;   69.29410;   70.03110;   70.07160;    0.33760
   -0.00018;    0.00012;  113.53000; 1301.92004; 1326.92004;   82.22190;    0.00352;    3.71287;   69.09200;   69.08010;   69.83800;   69.86270;    0.33766
   -0.00005;   -0.00038;  113.75000; 1306.93994; 1331.93994;   81.98280;   -0.00382;    3.68314;   68.88170;   68.89230;   69.65210;   69.65080;    0.33763
   -0.00023;    0.00000;  113.97000; 1311.93994; 1336.93994;   81.75220;    0.00051;    3.53805;   68.70140;   68.69380;   69.45440;   69.46250;    0.33746
    0.00005;   -0.00016;  114.21200; 1317.43005; 1342.43005;   81.51550;   -0.00375;    3.45673;   68.48980;   68.50020;   69.24570;   69.27680;    0.33696
   -0.00030;   -0.00000;  114.45400; 1322.90002; 1347.90002;   81.30410;   -0.00013;    3.18549;   68.32470;   68.32070;   69.09360;   69.07390;    0.33624
   -0.00001;   -0.00022;  114.69600; 1328.35999; 1353.35999;   81.12580;   -0.00245;    3.19166;   68.16010;   68.17070;   68.91000;   68.95680;    0.33669
   -0.00025;    0.00026;  114.93800; 1333.81006; 1358.81006;   80.98750;    0.00600;    2.74473;   68.05590;   68.04070;   68.81940;   68.81670;    0.33694
   -0.00056;   -0.00031;  115.18000; 1339.25000; 1364.25000;   80.89490;   -0.00108;    2.33911;   67.97140;   67.97020;   68.75020;   68.76930;    0.33775
   -0.00029;   -0.00011;  115.42200; 1344.68005; 1369.68005;   80.85530;   -0.00145;    1.71210;   67.93410;   67.93850;   68.75390;   68.73020;    0.33847
   -0.00009;   -0.00009;  115.66400; 1350.12000; 1375.12000;   80.87520;   -0.00033;    1.00346;   67.94860;   67.95310;   68.72690;   68.75750;    0.33945
   -0.00028;   -0.00032;  115.90600; 1355.56006; 1380.56006;   80.95880;   -0.00213;    0.26973;   68.01970;   68.01950;   68.81110;   68.79250;    0.33948
    0.00006;   -0.00000;  116.14800; 1361.00000; 1386.00000;   81.09000;    0.00067;   -0.03092;   68.13470;   68.13230;   68.91320;   68.89540;    0.33850
   -0.00008;   -0.00035;  116.39000; 1366.45996; 1391.45996;   81.22970;   -0.00462;    0.00431;   68.24550;   68.25320;   68.99690;   69.03810;    0.33776
    0.00005;    0.00002;  116.63200; 1371.92004; 1396.92004;   81.36290;   -0.00122;    0.01484;   68.36210;   68.36060;   69.10980;   69.14800;    0.33772
    0.00002;   -0.00018;  116.87400; 1377.40002; 1402.40002;   81.49020;   -0.00588;    0.01010;   68.46580;   68.47320;   69.21540;   69.25540;    0.33775
   -0.00004;    0.00010;  117.11600; 1382.88000; 1407.88000;   81.61190;   -0.00367;    0.01330;   68.57310;   68.56880;   69.35530;   69.31790;    0.33777
    0.00005;   -0.00007;  117.35800; 1388.37000; 1413.37000;   81.72810;   -0.00725;    0.06513;   68.66740;   68.67080;   69.43800;   69.42940;    0.33779
   -0.00006;    0.00019;  117.57800; 1393.37000; 1418.37000;   81.82940;   -0.00646;    0.01523;   68.75810;   68.75030;   69.54330;   69.49270;    0.33775
    0.00004;    0.00006;  117.79800; 1398.37000; 1423.37000;   81.92670;   -0.01087;   -0.03451;   68.83560;   68.83500;   69.60490;   69.59510;    0.33769
    0.00005;    0.00023;  118.01800; 1403.38000; 1428.38000;   82.01990;   -0.01213;    0.00421;   68.91430;   68.91540;   69.68240;   69.67320;    0.33770
   -0.00018;   -0.00032;  118.23800; 1408.40002; 1433.40002;   82.10950;   -0.02059;   -0.00044;   68.98380;   68.99370;   69.73750;   69.76670;    0.33770
   -0.00003;    0.00009;  118.45800; 1413.42004; 1438.42004;   82.19550;   -0.01629;    0.02942;   69.06410;   69.06010;   69.81500;   69.83230;    0.33776
   -0.00013;    0.00032;  118.67800; 1418.43994; 1443.43994;   82.27810;   -0.01796;    0.02725;   69.13420;   69.12850;   69.90210;   69.88340;    0.33774
   -0.00015;   -0.00009;  118.89800; 1423.47998; 1448.47998;   82.35760;   -0.02386;   -0.00603;   69.19440;   69.20120;   69.95150;   69.96800;    0.33775
   -0.00012;    0.00018;  119.11800; 1428.51001; 1453.51001;   82.43400;   -0.02203;   -0.00791;   69.26500;   69.26060;   70.03520;   70.01090;    0.33760
   -0.00033;    0.00007;  119.33800; 1433.55005; 1458.55005;   82.50740;   -0.02448;    0.01075;   69.32630;   69.32070;   70.10210;   70.06600;    0.33775
   -0.00021;    0.00007;  119.55800; 1438.55005; 1463.55005;   79.17310;   -0.03338;    0.07363;   64.38720;   64.20940;   66.21420;   66.23960;    0.33956
   -0.00030;    0.00011;  119.80000; 1443.56006; 1468.56006;   69.89150;   -0.02794;    0.03140;   56.57690;   56.57850;   58.62770;   58.62770;    0.34160
   -0.00043;   -0.00007;  120.08600; 1448.68994; 1473.68994;   59.38670;   -0.02860;    0.03675;   48.02240;   48.07320;   49.91770;   49.91770;    0.34183
   -0.00046;    0.00001;  120.43800; 1453.89001; 1478.89001;   47.02010;   -0.02320;    0.00081;   37.31320;   37.42260;   39.57900;   39.57900;    0.34223
   -0.01619;   -0.04821;  120.90000; 1458.90002; 1483.90002;   31.12960;   -0.53232;    0.02771;   25.02220;   25.13860;   26.18740;   26.18740;    0.34287
   -0.02445;   -0.06277;  121.73600; 1463.98999; 1488.98999;   19.31780;   -0.57153;    0.06471;   15.66140;   15.39350;   15.65060;   15.65060;    0.33981
   -0.02720;   -0.06436;  122.66000; 1469.04004; 1494.04004;   19.18900;   -0.58422;    0.07135;   15.96070;   15.81560;   16.53300;   16.53300;    0.33985
   -0.02865;   -0.06487;  123.58400; 1474.09998; 1499.09998;   19.94320;   -0.60034;   -0.01639;   16.28290;   19.10580;   17.44020;   17.44020;    0.33979
   -0.02933;   -0.06469;  124.50800; 1479.15002; 1504.15002;   19.89190;   -0.60106;   -0.02341;   17.64050;   18.00200;   16.54440;   16.54440;    0.33997
   -0.02981;   -0.06451;  125.43200; 1484.20996; 1509.20996;   19.72770;   -0.60997;   -0.01892;   16.92120;   19.77040;   17.56770;   17.56770;    0.34015
   -0.03038;   -0.06569;  126.35600; 1489.26001; 1514.26001;   19.71990;   -0.60361;   -0.02286;   18.25830;   15.12610;   16.57370;   16.57370;    0.34031
   -0.03042;   -0.06532;  127.25800; 1494.27002; 1519.27002;   21.34170;   -0.65737;    0.00424;   14.76050;   20.38910;   18.68700;   18.68700;    0.33986
   -0.03089;   -0.06727;  128.04601; 1499.39001; 1524.39001;   25.47570;   -0.79042;   -0.00105;   21.38600;   20.74950;   21.72870;   21.72870;    0.33977
   -0.03031;   -0.06559;  128.82600; 1504.48999; 1529.48999;   19.86790;   -0.62009;   -0.01562;   14.42920;   16.41320;   16.87070;   16.87070;    0.34022
   -0.03029;   -0.06478;  129.74600; 1509.53003; 1534.53003;   19.35860;   -0.55844;    0.01446;   15.39890;   13.72120;   16.91910;   16.91910;    0.33983
    0.01592;    0.06027;  130.66600; 1514.56006; 1539.56006;   19.72530;    0.52387;    0.06651;   14.82610;   15.82570;   16.59130;   16.59130;    0.33941
    0.02196;    0.06346;  131.58600; 1519.58997; 1544.58997;   19.99230;    0.57410;    0.05928;   17.76230;   16.57160;   16.26940;   16.26940;    0.33927
    0.02531;    0.06451;  132.50600; 1524.63000; 1549.63000;   19.46750;    0.55948;   -0.01727;   17.70580;   12.44730;   16.86710;   16.86710;    0.33979
    0.02748;    0.06572;  133.42599; 1529.67004; 1554.67004;   19.71750;    0.59467;   -0.00412;   16.10710;   18.07410;   16.48020;   16.48020;    0.33999
    0.02849;    0.06498;  134.34599; 1534.70996; 1559.70996;   20.02120;    0.60915;    0.00377;   14.79090;   17.01030;   17.65250;   17.65250;    0.33997
    0.02935;    0.06470;  135.26601; 1539.75000; 1564.75000;   19.49050;    0.59677;    0.04152;   16.46820;   18.50150;   16.32490;   16.32490;    0.34050
    0.02980;    0.06448;  136.18600; 1544.80005; 1569.80005;   19.73950;    0.60058;   -0.02490;   16.24630;   18.97700;   17.26250;   17.26250;    0.34187
    0.01959;    0.03616;  137.10600; 1549.83997; 1574.83997;   19.37660;    0.33474;    0.09402;   14.29770;   15.57130;   15.74400;   15.74400;    0.33994
    0.01851;    0.03537;  138.02600; 1554.89001; 1579.89001;   19.51510;    0.35634;    0.15697;   18.21660;   16.56780;   17.47320;   17.47320;    0.33999
    0.01810;    0.03571;  138.94600; 1559.93005; 1584.93005;   19.75350;    0.34953;    0.18734;   17.34420;   12.97450;   16.45450;   16.45450;    0.34015
    0.01771;    0.03524;  139.86600; 1564.95996; 1589.95996;   19.70410;    0.33529;    0.20428;   16.83420;   18.69000;   17.60000;   17.60000;    0.33990
    0.01755;    0.03502;  140.78600; 1569.98999; 1594.98999;   19.74750;    0.34229;    0.25886;   16.10330;   15.65050;   17.73290;   17.73290;    0.34226
    0.01749;    0.03482;  141.70599; 1575.03003; 1600.03003;   19.62170;    0.34942;    0.30807;   16.65960;   17.88850;   16.66120;   16.66120;    0.34016
    0.01751;    0.03477;  142.62601; 1580.06995; 1605.06995;   19.56250;    0.34558;    0.39585;   16.12440;   16.60220;   15.99020;   15.99020;    0.34015
    0.01741;    0.03445;  143.54601; 1585.10999; 1610.10999;   19.35340;    0.34995;    0.36892;   16.34710;   16.40570;   15.87560;   15.87560;    0.34021
    0.01770;    0.03531;  144.46600; 1590.14001; 1615.14001;   19.85930;    0.35645;    0.41689;   14.88570;   16.51540;   17.83020;   17.83020;    0.33985
    0.01780;    0.03543;  145.38600; 1595.17004; 1620.16003;   19.56330;    0.33443;    0.40120;   17.99470;   16.07560;   17.06330;   17.06330;    0.34098
    0.01784;    0.03525;  146.30600; 1600.20996; 1625.20996;   19.35300;    0.32601;    0.50744;   16.62340;   14.92510;   15.77890;   15.77890;    0.33992
    0.01766;    0.03455;  147.22600; 1605.25000; 1630.25000;   19.78810;    0.35790;    0.45862;   16.39680;   15.18830;   17.66640;   17.66640;    0.34014
    0.01779;    0.03490;  148.14600; 1610.29004; 1635.29004;   19.53710;    0.35753;    0.45601;   16.37370;   15.02290;   16.03140;   16.03140;    0.34044
    0.01763;    0.03432;  149.06599; 1615.32996; 1640.32996;   19.95850;    0.35933;    0.49186;   14.97530;   18.11210;   17.93230;   17.93230;    0.33996
    0.01781;    0.03472;  149.98599; 1620.35999; 1645.35999;   19.65040;    0.35843;    0.41695;   18.26360;   16.24760;   17.15510;   17.15510;    0.33955
    0.01780;    0.03439;  150.90601; 1625.38000; 1650.38000;   19.38640;    0.34969;    0.47472;   15.92880;   16.30700;   16.77510;   16.77510;    0.34043
    0.01793;    0.03444;  151.82600; 1630.41003; 1655.41003;   19.89760;    0.35683;    0.40010;   18.17310;   18.07940;   17.51830;   17.51830;    0.34016
    0.01807;    0.03456;  152.74600; 1635.43994; 1660.43994;   19.71870;    0.35925;    0.35865;   15.86700;   17.33590;   17.74650;   17.74650;    0.34015
    0.01783;    0.03457;  153.66600; 1640.46997; 1665.46997;   19.59200;    0.36768;    0.29268;   14.40730;   18.28320;   16.53530;   16.53530;    0.34043
    0.01789;    0.03465;  154.58600; 1645.52002; 1670.52002;   19.56860;    0.36440;    0.22353;   13.67210;   15.54820;   16.10870;   16.10870;    0.33810
    0.01826;    0.03423;  155.50600; 1650.55005; 1675.55005;   19.50430;    0.35303;    0.26274;   18.01480;   15.14590;   16.40090;   16.40090;    0.34060
    0.01846;    0.03440;  156.42599; 1655.59998; 1680.59998;   19.60030;    0.36462;    0.19065;   15.01640;   14.83860;   16.40710;   16.40710;    0.34072
    0.01841;    0.03453;  157.34599; 1660.65002; 1685.64001;   19.71760;    0.36476;    0.17759;   13.90500;   18.04690;   16.66800;   16.66800;    0.34049
    0.01849;    0.03527;  158.26601; 1665.68005; 1690.68005;   19.95910;    0.36485;    0.07866;   17.28440;   14.59840;   17.44220;   17.44220;    0.34015
    0.01823;    0.03411;  159.18600; 1670.72998; 1695.72998;   19.45650;    0.35691;   -0.01635;   16.52050;   15.84830;   17.20150;   17.20150;    0.33604
    0.01314;    0.02092;  160.10600; 1675.77002; 1700.77002;   20.06700;    0.23954;   -0.26088;   18.19960;   16.25440;   16.75500;   16.75500;    0.34025
    0.01208;    0.01960;  161.02600; 1680.81995; 1705.81995;   19.42040;    0.23574;   -0.31157;   10.83110;   16.18680;   16.07440;   16.07440;    0.33773
    0.01185;    0.01995;  161.94600; 1685.87000; 1710.87000;   19.52570;    0.22255;   -0.48535;   14.72350;   18.36890;   17.50240;   17.50240;    0.33992
    0.01170;    0.02064;  162.82600; 1690.95996; 1715.95996;   23.11330;    0.25522;   -0.58280;   21.93510;   20.25830;   19.31680;   19.31680;    0.33913
    0.01132;    0.02150;  163.54601; 1696.06006; 1721.06006;   27.86750;    0.29499;   -0.77565;   25.05280;   24.09070;   23.87300;   23.87300;    0.33913
    0.01082;    0.02153;  164.14600; 1701.06006; 1726.06006;   32.12200;    0.31482;   -0.87063;   28.43540;   24.33340;   27.46330;   27.46330;    0.33943
    0.01032;    0.02179;  164.68600; 1706.16003; 1731.16003;   35.91960;    0.33853;   -0.91136;   31.07960;   29.88810;   30.77330;   30.77330;    0.34004
    0.00987;    0.02211;  165.16600; 1711.18005; 1736.18005;   39.34450;    0.34696;   -0.87197;   31.77480;   30.80090;   33.71990;   33.71990;    0.33852
    0.00923;    0.02154;  165.62601; 1716.40002; 1741.40002;   42.37310;    0.36869;   -0.54935;   35.80540;   35.40130;   36.25520;   36.25520;    0.34159
    0.00897;    0.02197;  166.04601; 1721.50000; 1746.50000;   45.01340;    0.38032;   -0.17845;   38.08400;   37.63650;   38.49230;   38.49230;    0.33785
   -0.00543;   -0.02029;  166.48599; 1726.53003; 1751.53003;   34.16290;   -0.28266;   -0.23386;   25.28860;   25.54240;   28.69550;   28.69550;    0.34244
   -0.00728;   -0.02055;  167.24600; 1731.53003; 1756.53003;   19.78600;   -0.18408;   -0.34664;   17.41170;   16.57330;   16.99860;   16.99860;    0.33973
   -0.00839;   -0.02077;  168.16600; 1736.57996; 1761.57996;   19.90580;   -0.19549;   -0.44616;   19.25520;   18.22060;   17.53940;   17.53940;    0.33971
   -0.00912;   -0.02136;  169.08600; 1741.62000; 1766.62000;   19.53880;   -0.20157;   -0.48428;   14.05090;   16.37180;   17.25410;   17.25410;    0.34000
   -0.00936;   -0.02135;  169.98599; 1746.70996; 1771.70996;   22.40080;   -0.22515;   -0.61439;   17.76570;   18.14810;   19.27570;   19.27570;    0.33931
   -0.01004;   -0.02219;  170.72600; 1751.81006; 1776.81006;   27.20700;   -0.26810;   -0.75997;   23.50480;   23.27960;   23.51310;   23.51310;    0.33922
   -0.00979;   -0.02196;  171.34599; 1756.87000; 1781.87000;   31.54630;   -0.31051;   -0.77231;   26.14620;   25.98990;   26.93350;   26.93350;    0.33900
   -0.00963;   -0.02210;  171.88600; 1761.88000; 1786.88000;   35.30950;   -0.32903;   -0.75678;   29.48560;   29.69640;   30.18070;   30.18070;    0.33860
   -0.00944;   -0.02234;  172.38600; 1767.03003; 1792.03003;   38.74630;   -0.36263;   -0.50240;   32.24340;   32.83280;   33.10230;   33.10230;    0.33820
   -0.00906;   -0.02202;  172.84599; 1772.17004; 1797.17004;   41.74380;   -0.36597;   -0.23833;   34.85690;   35.18290;   35.70810;   35.70810;    0.33765
   -0.00236;   -0.00177;  173.26601; 1777.19995; 1802.19995;   44.36500;   -0.07133;   -0.22176;   37.18470;   37.29840;   37.95010;   37.95010;    0.33880
   -0.00119;   -0.00013;  173.66600; 1782.27002; 1807.27002;   46.81700;   -0.00345;   -0.27339;   39.30940;   39.28200;   40.03720;   40.03720;    0.33864
   -0.00105;    0.00000;  174.04601; 1787.32996; 1812.32996;   49.11050;   -0.00034;   -0.73280;   41.25850;   41.27250;   42.03350;   42.03350;    0.33975
   -0.00105;   -0.00000;  174.40601; 1792.34998; 1817.34998;   51.28450;   -0.00007;   -0.76839;   43.06570;   43.08520;   43.83440;   43.83440;    0.33860
   -0.00103;   -0.00000;  174.76601; 1797.57996; 1822.57996;   53.41160;   -0.00012;   -1.13482;   44.83960;   44.87520;   45.65770;   45.65770;    0.33961
   -0.00099;    0.00000;  175.10600; 1802.71997; 1827.71997;   55.39250;   -0.00005;   -1.26730;   46.54280;   46.55240;   47.32030;   47.32030;    0.33849
   -0.00088;    0.00001;  175.42599; 1807.72998; 1832.72998;   57.19990;   -0.00008;   -1.57435;   48.10760;   48.04150;   48.85870;   48.85870;    0.33917
   -0.00088;   -0.00000;  175.74600; 1812.89001; 1837.89001;   58.95840;   -0.00003;   -1.59671;   49.53350;   49.51330;   50.33120;   50.33120;    0.33844
   -0.00088;   -0.00000;  176.06599; 1818.20996; 1843.20996;   60.65000;   -0.00005;   -1.81190;   50.96520;   50.96330;   51.76450;   51.76450;    0.33873
   -0.00088;    0.00000;  176.36600; 1823.32996; 1848.32996;   62.17910;    0.00005;   -1.81469;   52.24030;   52.23200;   53.05000;   53.05000;    0.33838
   -0.00081;    0.00000;  176.66600; 1828.56995; 1853.56995;   63.64130;    0.00009;   -1.90125;   53.46930;   53.47530;   54.28390;   54.28390;    0.33829
   -0.00081;    0.00000;  176.94600; 1833.56995; 1858.56995;   64.94840;   -0.00001;   -1.95506;   54.55610;   54.54930;   55.38320;   55.38320;    0.33830
   -0.00081;    0.00000;  177.22600; 1838.67004; 1863.67004;   66.18490;   -0.00004;   -1.76352;   55.60830;   55.59810;   56.42350;   56.42350;    0.33799
   -0.00081;   -0.00000;  177.50600; 1843.87000; 1868.87000;   67.36020;   -0.00016;   -1.83910;   56.57860;   56.59290;   57.41200;   57.41200;    0.33814
   -0.00077;    0.00000;  177.78600; 1849.15002; 1874.15002;   68.45330;   -0.00010;   -1.49129;   57.49980;   57.51180;   58.33410;   58.33410;    0.33764
   -0.00078;   -0.00000;  178.06599; 1854.51001; 1879.51001;   69.48470;   -0.00013;   -1.37470;   58.37330;   58.38080;   59.19770;   59.19770;    0.33856
   -0.00077;    0.00000;  178.32600; 1859.56006; 1884.56006;   70.35270;    0.00008;   -1.00192;   59.09930;   59.10360;   59.93160;   59.93160;    0.33750
   -0.00074;   -0.00001;  178.58600; 1864.68005; 1889.68005;   71.17110;   -0.00064;   -0.74391;   59.79510;   59.79660;   60.61480;   60.61480;    0.33954
   -0.00073;    0.00001;  178.84599; 1869.83997; 1894.83997;   71.88860;    0.00014;   -0.34663;   60.39680;   60.40080;   61.22350;   61.22350;    0.33737
   -0.00073;    0.00001;  179.10600; 1875.06006; 1900.06006;   72.55990;    0.00021;    0.03502;   60.96230;   60.96220;   61.78100;   61.78100;    0.34131
   -0.00073;    0.00000;  179.36600; 1880.31995; 1905.31995;   73.14540;    0.00003;    0.14663;   61.44580;   61.45330;   62.27700;   62.27700;    0.33757
   -0.00073;    0.00001;  179.62601; 1885.62000; 1910.62000;   73.69120;    0.00021;    0.20120;   61.91420;   61.91690;   62.72800;   62.72800;    0.33796
   -0.00073;   -0.00000;  179.88600; 1890.95996; 1915.95996;   74.18120;   -0.00008;    0.42378;   62.31540;   62.31180;   63.13880;   63.13880;    0.33746
   -0.00073;   -0.00007;  180.14600; 1896.33997; 1921.33997;   74.63300;    0.00002;    0.48169;   62.70760;   62.69620;   63.51460;   63.51460;    0.33797
   -0.00072;    0.00000;  180.40601; 1901.73999; 1926.73999;   75.04180;    0.00009;    0.86752;   63.05040;   63.05160;   63.85170;   63.85170;    0.33715
   -0.00072;   -0.00000;  180.64600; 1906.76001; 1931.76001;   75.38530;   -0.00008;    0.84120;   63.33640;   63.33870;   64.14240;   64.14240;    0.33796
   -0.00072;    0.00001;  180.88600; 1911.80005; 1936.80005;   75.70390;    0.00017;    0.95532;   63.60940;   63.60490;   64.40850;   64.40850;    0.33787
   -0.00067;   -0.00000;  181.12601; 1916.84998; 1941.84998;   75.98600;   -0.00012;    1.06341;   63.84090;   63.84400;   64.63010;   64.65930;    0.33790
   -0.00067;   -0.00001;  181.36600; 1921.93005; 1946.93005;   76.25230;   -0.00016;    1.21017;   64.06690;   64.07120;   64.90490;   64.82680;    0.33977
   -0.00067;    0.00000;  181.60600; 1927.02002; 1952.02002;   76.48340;    0.00000;    1.35776;   64.26000;   64.26230;   65.09470;   65.02550;    0.33772
   -0.00067;    0.00000;  181.84599; 1932.12000; 1957.12000;   76.70060;   -0.00001;    1.32984;   64.44520;   64.44490;   65.27280;   65.20840;    0.33790
   -0.00067;    0.00001;  182.08600; 1937.23999; 1962.23999;   76.89150;    0.00006;    1.53681;   64.60030;   64.60110;   65.41780;   65.38090;    0.33738
   -0.00067;    0.00000;  182.32600; 1942.38000; 1967.38000;   77.06500;    0.00011;    1.53171;   64.74560;   64.74910;   65.55760;   65.53100;    0.33790
   -0.00068;    0.00000;  182.56599; 1947.52002; 1972.52002;   77.22180;    0.00029;    1.73366;   64.88340;   64.88170;   65.64610;   65.68290;    0.33717
   -0.00068;   -0.00000;  182.80600; 1952.67004; 1977.67004;   77.35760;    0.00004;    1.79133;   64.99680;   64.99670;   65.77180;   65.80670;    0.33780
   -0.00068;    0.00001;  183.04601; 1957.82996; 1982.82996;   77.48430;    0.00010;    1.84415;   65.10480;   65.09950;   65.92160;   65.86820;    0.33855
   -0.00068;    0.00000;  183.28600; 1963.00000; 1988.00000;   77.58900;   -0.00004;    2.03009;   65.19120;   65.19050;   65.99280;   65.97290;    0.33787
   -0.00069;    0.00000;  183.52600; 1968.18005; 1993.18005;   77.68810;    0.00002;    2.08900;   65.27450;   65.27150;   66.09080;   66.04080;    0.33866
   -0.00068;    0.00000;  183.76601; 1973.35999; 1998.35999;   77.76860;    0.00009;    2.18364;   65.34260;   65.34130;   66.11690;   66.14840;    0.33773
   -0.00069;   -0.00000;  184.00600; 1978.55005; 2003.55005;   77.84280;    0.00006;    2.20671;   65.40460;   65.40510;   66.21970;   66.16750;    0.33790
   -0.00068;    0.00000;  184.24600; 1983.73999; 2008.73999;   77.90450;   -0.00000;    2.31719;   65.45820;   65.45700;   66.26730;   66.22410;    0.33749
   -0.00069;   -0.00001;  184.48599; 1988.93005; 2013.93005;   77.95800;   -0.00012;    2.32987;   65.50180;   65.50190;   66.26120;   66.31900;    0.33782
   -0.00069;    0.00001;  184.72600; 1994.13000; 2019.13000;   78.00460;    0.00037;    2.41965;   65.54080;   65.54060;   66.31270;   66.33260;    0.33753
   -0.00069;   -0.00000;  184.96600; 1999.32996; 2024.32996;   78.04110;    0.00006;    2.44669;   65.57190;   65.57180;   66.34370;   66.37670;    0.33790
   -0.00070;    0.00001;  185.20599; 2004.54004; 2029.54004;   78.07470;    0.00020;    2.52173;   65.60010;   65.59990;   66.37530;   66.40080;    0.33822
   -0.00070;   -0.00000;  185.44600; 2009.75000; 2034.75000;   78.09890;    0.00006;    2.53207;   65.62060;   65.62020;   66.39480;   66.42250;    0.33782
   -0.00063;    0.00002;  185.68600; 2014.94995; 2039.94995;   78.12150;    0.00072;    2.59882;   65.63930;   65.63920;   66.42170;   66.43390;    0.33828
   -0.00064;    0.00000;  185.92599; 2020.16003; 2045.16003;   78.13710;    0.00004;    2.55354;   65.65310;   65.65220;   66.45480;   66.43090;    0.33777
   -0.00064;   -0.00000;  186.16600; 2025.37000; 2050.37012;   78.15100;    0.00002;    2.57784;   65.66460;   65.66450;   66.46760;   66.43940;    0.33786
   -0.00063;    0.00000;  186.40601; 2030.57996; 2055.58008;   78.16110;    0.00026;    2.71938;   65.67270;   65.67260;   66.43610;   66.48340;    0.33778
   -0.00064;   -0.00000;  186.64600; 2035.78003; 2060.79004;   78.16920;    0.00008;    2.66111;   65.67920;   65.67980;   66.44170;   66.49130;    0.33781
   -0.00064;   -0.00000;  186.88600; 2041.00000; 2066.00000;   78.17580;    0.00006;    2.66587;   65.68490;   65.68530;   66.45020;   66.49410;    0.33770
   -0.00064;    0.00000;  187.12601; 2046.20996; 2071.21997;   78.18070;    0.00015;    2.66034;   65.68940;   65.68900;   66.48570;   66.46810;    0.33783
   -0.00065;    0.00001;  187.36600; 2051.41992; 2076.42993;   78.18540;    0.00027;    2.68510;   65.69360;   65.69270;   66.49170;   66.46980;    0.33779
   -0.00065;    0.00000;  187.60600; 2056.62988; 2081.63989;   78.18990;    0.00002;    2.67512;   65.69690;   65.69710;   66.50080;   66.46890;    0.33782
   -0.00065;   -0.00000;  187.84599; 2061.85010; 2086.85010;   78.19420;    0.00003;    2.66364;   65.70080;   65.70050;   66.50360;   66.47290;    0.33769
   -0.00065;   -0.00000;  188.08600; 2067.06006; 2092.06006;   78.20050;    0.00002;    2.64707;   65.70580;   65.70530;   66.49620;   66.49080;    0.33783
   -0.00065;    0.00001;  188.32600; 2072.27002; 2097.28003;   78.20660;    0.00019;    2.63625;   65.71100;   65.71070;   66.47090;   66.52460;    0.33789
   -0.00065;    0.00000;  188.56599; 2077.48999; 2102.48999;   78.21590;    0.00009;    2.57333;   65.71840;   65.71900;   66.47930;   66.53200;    0.33793
   -0.00065;    0.00000;  188.80600; 2082.69995; 2107.70996;   78.22600;    0.00005;    2.59216;   65.72730;   65.72710;   66.49310;   66.53710;    0.33785
   -0.00066;   -0.00000;  189.04601; 2087.91992; 2112.91992;   78.23890;    0.00000;    2.55271;   65.73790;   65.73790;   66.51230;   66.54480;    0.33805
   -0.00066;    0.00000;  189.28600; 2093.13989; 2118.13989;   78.25520;    0.00001;    2.54411;   65.75190;   65.75190;   66.52160;   66.55590;    0.33782
   -0.00066;    0.00001;  189.52600; 2098.35010; 2123.36011;   78.27300;    0.00022;    2.44746;   65.76680;   65.76540;   66.53870;   66.56830;    0.33780
   -0.00067;    0.00000;  189.76601; 2103.57007; 2128.58008;   78.29700;    0.00006;    2.44614;   65.78730;   65.78650;   66.59770;   66.54890;    0.33785
   -0.00067;   -0.00001;  190.00600; 2108.79004; 2133.80005;   78.32090;   -0.00001;    2.32671;   65.80770;   65.80590;   66.61380;   66.57370;    0.33685
   -0.00067;    0.00000;  190.24600; 2114.02002; 2139.02002;   78.35370;   -0.00001;    2.30928;   65.83470;   65.83390;   66.64270;   66.59780;    0.33787
   -0.00067;    0.00000;  190.48599; 2119.23999; 2144.23999;   78.38580;    0.00007;    2.30437;   65.86130;   65.86160;   66.67700;   66.61870;    0.33779
   -0.00067;    0.00000;  190.72600; 2124.46997; 2149.46997;   78.42730;    0.00004;    2.18222;   65.89590;   65.89700;   66.71750;   66.64670;    0.33801
   -0.00067;    0.00000;  190.96600; 2129.69995; 2154.69995;   78.47030;    0.00010;    2.17681;   65.93300;   65.93150;   66.73870;   66.69700;    0.33783
   -0.00067;    0.00002;  191.20599; 2134.92993; 2159.92993;   78.52000;    0.00050;    2.04553;   65.97360;   65.97440;   66.74000;   66.78320;    0.33820
   -0.00068;    0.00000;  191.44600; 2140.16992; 2165.16992;   78.57540;    0.00002;    2.01601;   66.02120;   66.02040;   66.79340;   66.81720;    0.33784
   -0.00068;    0.00001;  191.68600; 2145.40991; 2170.40991;   78.63310;    0.00043;    1.83704;   66.07020;   66.06730;   66.89250;   66.85840;    0.33806
   -0.00069;   -0.00000;  191.92599; 2150.64990; 2175.65991;   78.70270;   -0.00003;    1.81973;   66.12840;   66.12690;   66.92860;   66.89530;    0.33780
   -0.00069;   -0.00000;  192.16600; 2155.89990; 2180.89990;   78.77090;   -0.00004;    1.78600;   66.18410;   66.18460;   66.99230;   66.94330;    0.33669
   -0.00068;    0.00000;  192.40601; 2161.15991; 2186.15991;   78.85400;    0.00003;    1.61066;   66.25460;   66.25390;   67.05110;   67.02170;    0.33793
   -0.00069;    0.00000;  192.64600; 2166.41992; 2191.41992;   78.93440;   -0.00001;    1.47764;   66.32150;   66.32110;   67.11040;   67.10060;    0.33667
   -0.00069;   -0.00000;  192.88600; 2171.67993; 2196.67993;   79.03060;    0.00008;    1.40690;   66.40390;   66.40290;   67.16690;   67.19980;    0.33807
   -0.00069;   -0.00000;  193.12601; 2176.94995; 2201.95996;   79.12620;    0.00003;    1.34600;   66.48480;   66.48170;   67.24820;   67.27960;    0.33776
   -0.00064;   -0.00007;  193.36600; 2182.22998; 2207.22998;   79.23420;   -0.00231;    1.10132;   66.57170;   66.57710;   67.37530;   67.33460;    0.33831
   -0.00061;   -0.00000;  193.60600; 2187.52002; 2212.52002;   79.34650;   -0.00010;    1.15986;   66.66730;   66.66820;   67.45470;   67.44100;    0.33777
   -0.00062;   -0.00001;  193.84599; 2192.81006; 2217.81006;   79.46590;   -0.00033;    0.84730;   66.76800;   66.76680;   67.55220;   67.56140;    0.33843
   -0.00062;   -0.00000;  194.08600; 2198.11011; 2223.12012;   79.59630;    0.00001;    0.83352;   66.87670;   66.87690;   67.67160;   67.64090;    0.33781
   -0.00062;   -0.00000;  194.32600; 2203.41992; 2228.42993;   79.72810;   -0.00010;    0.61107;   66.98440;   66.98460;   67.76860;   67.76450;    0.33780
   -0.00062;    0.00000;  194.56599; 2208.73999; 2233.75000;   79.87680;    0.00000;    0.46528;   67.11020;   67.11540;   67.91360;   67.86580;    0.33774
   -0.00063;   -0.00002;  194.80600; 2214.07007; 2239.08008;   80.02240;   -0.00049;    0.27421;   67.22980;   67.23600;   68.02190;   67.99860;    0.33566
   -0.00062;   -0.00000;  195.04601; 2219.40991; 2244.41992;   80.18970;   -0.00001;    0.10153;   67.37390;   67.37160;   68.16840;   68.12950;    0.33787
   -0.00058;    0.00013;  195.28600; 2224.76001; 2249.76001;   78.85420;    0.00228;    0.17979;   64.02170;   64.03860;   66.02390;   66.00990;    0.33763
    0.00474;    0.02122;  195.54601; 2230.09009; 2255.09009;   68.90550;    0.22973;    0.00273;   56.10900;   54.12140;   57.79660;   57.79660;    0.34174
    0.00452;    0.02108;  195.84599; 2235.37012; 2260.37012;   57.90220;    0.32094;    0.04196;   47.12850;   46.49760;   48.67350;   48.67350;    0.34196
    0.00540;    0.02092;  196.20599; 2240.52002; 2265.52002;   45.25850;    0.32934;    0.01052;   37.24380;   36.78700;   38.13770;   38.13770;    0.34221
    0.00674;    0.02101;  196.70599; 2245.61011; 2270.62012;   28.09940;    0.26319;    0.04000;   22.58960;   23.22590;   23.64350;   23.64350;    0.34257
    0.00810;    0.02055;  197.58600; 2250.70996; 2275.71997;   19.47770;    0.19001;   -0.02050;   19.01370;   15.79010;   17.63650;   17.63650;    0.33996
    0.00884;    0.02059;  198.50600; 2255.75000; 2280.76001;   20.04560;    0.20097;   -0.10060;   14.97210;   15.12080;   16.97360;   16.97360;    0.33939
    0.00949;    0.02157;  199.42599; 2260.79004; 2285.79004;   19.57220;    0.16902;   -0.08423;   16.50410;   17.34530;   16.80180;   16.80180;    0.33977
    0.00957;    0.02130;  200.34599; 2265.82007; 2290.82007;   19.95570;    0.19580;    0.01284;   18.59140;   17.11610;   18.03030;   18.03030;    0.33937
    0.00977;    0.02182;  201.26601; 2270.86011; 2295.86011;   19.66810;    0.19454;   -0.04376;   18.83670;   15.66110;   16.05290;   16.05290;    0.33986
    0.00962;    0.02101;  202.18600; 2275.89990; 2300.89990;   20.10350;    0.20153;   -0.00124;   16.45910;   15.01170;   18.05900;   18.05900;    0.33951
    0.00976;    0.02147;  203.10600; 2280.92993; 2305.92993;   19.67820;    0.18714;   -0.04582;   16.08600;   17.48530;   17.39740;   17.39740;    0.33977
    0.00976;    0.02139;  204.02600; 2285.96997; 2310.96997;   19.36500;    0.19416;    0.05996;   14.75470;   15.42940;   16.94110;   16.94110;    0.33946
    0.00980;    0.02157;  204.94600; 2291.00000; 2316.00000;   19.85540;    0.19723;   -0.03511;   16.23100;   13.70210;   16.21310;   16.21310;    0.33984
    0.00965;    0.02110;  205.86600; 2296.04004; 2321.04004;   19.42660;    0.19206;    0.07653;   13.96370;   15.20390;   17.09220;   17.09220;    0.33950
    0.01003;    0.02219;  206.78600; 2301.08008; 2326.08008;   19.89010;    0.17835;   -0.13346;   14.98580;   14.88910;   17.22330;   17.22330;    0.33953
    0.00984;    0.02156;  207.70599; 2306.11011; 2331.11011;   19.46150;    0.17959;   -0.07964;   15.79220;   14.54340;   17.13840;   17.13840;    0.33979
    0.00975;    0.02140;  208.62601; 2311.14990; 2336.14990;   19.92570;    0.19365;   -0.05485;   13.68990;   14.48990;   17.97550;   17.97550;    0.33958
    0.00975;    0.02123;  209.54601; 2316.18994; 2341.18994;   19.43400;    0.19559;    0.05882;   17.80900;   18.22710;   17.34240;   17.34240;    0.33998
    0.00964;    0.02105;  210.46600; 2321.22998; 2346.22998;   19.94090;    0.20603;   -0.06330;   15.42790;   19.08140;   16.51590;   16.51590;    0.33958
    0.00975;    0.02126;  211.38600; 2326.26001; 2351.27002;   19.62290;    0.19270;    0.06003;   15.70710;   15.98110;   16.19380;   16.19380;    0.33999
    0.00976;    0.02125;  212.30600; 2331.31006; 2356.31006;   19.98410;    0.19948;   -0.03978;   15.95900;   16.69540;   17.51600;   17.51600;    0.33947
    0.00984;    0.02147;  213.22600; 2336.35010; 2361.35010;   19.60060;    0.19873;   -0.02785;   19.02490;   14.39970;   17.65810;   17.65810;    0.33968
    0.01014;    0.02256;  214.14600; 2341.38989; 2366.38989;   19.36330;    0.16705;    0.01944;   14.15150;   10.98730;   16.65670;   16.65670;    0.33941
    0.00977;    0.02136;  215.06599; 2346.41992; 2371.41992;   19.71210;    0.19809;   -0.06359;   17.96080;   15.49630;   16.59970;   16.59970;    0.33978
    0.00986;    0.02147;  215.98599; 2351.44995; 2376.45996;   19.25010;    0.19386;    0.01534;   18.74330;   19.39140;   16.02550;   16.02550;    0.33994
    0.01038;    0.02301;  216.90601; 2356.47998; 2381.47998;   19.72950;    0.19354;   -0.03311;   17.61800;   14.69300;   17.58370;   17.58370;    0.33964
    0.01379;    0.03193;  217.82600; 2361.53003; 2386.53003;   19.36720;    0.28813;    0.08302;   15.90230;   15.19160;   16.88990;   16.88990;    0.33964
    0.01426;    0.03224;  218.74600; 2366.56006; 2391.56006;   19.75960;    0.29184;    0.01061;   18.75590;   13.55280;   17.22890;   17.22890;    0.33975
    0.01427;    0.03165;  219.66600; 2371.60010; 2396.60010;   19.45950;    0.29142;    0.03153;   14.48400;   15.52890;   15.93570;   15.93570;    0.33984
    0.01459;    0.03214;  220.58600; 2376.63989; 2401.63989;   19.77220;    0.29053;   -0.01339;   16.96920;   15.67640;   17.19220;   17.19220;    0.33970
    0.01484;    0.03285;  221.50600; 2381.68994; 2406.68994;   19.41890;    0.26210;    0.02128;   15.77970;   14.86350;   16.75910;   16.75910;    0.33934
    0.01477;    0.03254;  222.38600; 2386.80005; 2411.80005;   23.06340;    0.34493;    0.03942;   19.07220;   17.19580;   19.32100;   19.32100;    0.33916
    0.01497;    0.03365;  223.10600; 2391.80005; 2416.81006;   27.04180;    0.39699;   -0.02374;   25.55610;   20.29190;   23.12280;   23.12280;    0.33910
    0.01473;    0.03343;  223.74600; 2396.94995; 2421.95996;   30.91960;    0.44316;    0.02375;   24.28970;   24.00390;   26.40600;   26.40600;    0.33897
    0.01420;    0.03249;  224.30600; 2402.02002; 2427.03003;   34.29660;    0.48449;    0.00943;   28.94650;   28.43380;   29.38220;   29.38220;    0.33898
    0.01410;    0.03279;  224.86600; 2407.12988; 2432.12988;   25.67020;    0.38025;    0.02428;   19.43250;   20.34340;   21.49730;   21.49730;    0.34268
   -0.00778;   -0.02854;  225.76601; 2412.18994; 2437.18994;   19.51550;   -0.25043;   -0.02680;   13.80990;   17.60280;   17.07110;   17.07110;    0.33974
   -0.01116;   -0.03066;  226.68600; 2417.21997; 2442.22998;   19.94950;   -0.28066;   -0.00604;   14.13230;   17.21700;   17.32830;   17.32830;    0.33953
   -0.01284;   -0.03134;  227.60600; 2422.26001; 2447.26001;   19.61470;   -0.27816;    0.00113;   12.90350;   15.92030;   16.45010;   16.45010;    0.33999
   -0.01360;   -0.03131;  228.52600; 2427.31006; 2452.31006;   19.99440;   -0.29860;    0.00522;   15.28140;   16.80540;   16.49570;   16.49570;    0.33952
   -0.01422;   -0.03197;  229.44600; 2432.34009; 2457.35010;   19.52590;   -0.29056;    0.04340;   18.27830;   18.48490;   16.42720;   16.42720;    0.33987
   -0.01454;   -0.03226;  230.36600; 2437.37988; 2462.37988;   19.99600;   -0.29923;   -0.00708;   14.93160;   18.03370;   16.74760;   16.74760;    0.33958
   -0.01454;   -0.03207;  231.28600; 2442.41992; 2467.41992;   19.59780;   -0.29350;   -0.00437;   15.51050;   14.55340;   17.53550;   17.53550;    0.33986
   -0.01479;   -0.03275;  232.16600; 2447.41992; 2472.42993;   22.35830;   -0.31209;    0.00975;   16.56530;   20.95740;   18.87800;   18.87800;    0.33915
   -0.01482;   -0.03304;  232.90601; 2452.42993; 2477.43994;   26.37500;   -0.37895;   -0.05831;   22.04570;   24.01840;   22.91650;   22.91650;    0.33906
   -0.01471;   -0.03327;  233.54601; 2457.46997; 2482.46997;   30.19430;   -0.44161;    0.03612;   25.03450;   26.76250;   25.92900;   25.92900;    0.33911
   -0.00535;   -0.00566;  234.12601; 2462.62012; 2487.62988;   33.77810;   -0.12171;    0.16431;   27.67780;   27.21040;   28.87210;   28.87210;    0.33858
   -0.00223;   -0.00097;  234.64600; 2467.72998; 2492.72998;   36.92370;   -0.01279;    0.22722;   29.45900;   31.40210;   31.59270;   31.59270;    0.33886
   -0.00115;   -0.00046;  235.12601; 2472.84009; 2497.85010;   39.79220;   -0.01105;    0.59566;   33.31070;   32.83850;   33.99170;   33.99170;    0.33768
   -0.00060;   -0.00025;  235.56599; 2477.86011; 2502.86011;   42.27440;   -0.00441;    0.66130;   35.53790;   35.57490;   36.16630;   36.16630;    0.33874
   -0.00031;   -0.00010;  235.98599; 2482.92993; 2507.92993;   44.57380;   -0.00188;    1.04571;   37.33230;   37.51880;   38.12570;   38.12570;    0.33773
   -0.00016;   -0.00006;  236.38600; 2488.00000; 2513.00000;   46.65280;   -0.00123;    1.08946;   39.18630;   39.18770;   39.90000;   39.90000;    0.33867
   -0.00009;   -0.00003;  236.76601; 2493.02002; 2518.02002;   48.52560;   -0.00080;    1.41984;   40.76670;   40.76770;   41.48500;   41.48500;    0.33771
   -0.00005;    0.00001;  237.14600; 2498.23999; 2523.23999;   50.28630;   -0.00009;    1.39112;   42.32080;   42.32110;   42.99310;   42.99310;    0.33848
   -0.00003;   -0.00002;  237.50600; 2503.35010; 2528.35010;   51.86760;   -0.00032;    1.80916;   43.58830;   43.57680;   44.33070;   44.33070;    0.33802
   -0.00002;   -0.00002;  237.86600; 2508.61011; 2533.61011;   53.36230;    0.00014;    1.79808;   44.81570;   44.80910;   45.60120;   45.60120;    0.33849
   -0.00002;    0.00000;  238.20599; 2513.70996; 2538.71997;   54.69470;   -0.00017;    2.07885;   45.93740;   45.95170;   46.73040;   46.73040;    0.33810
   -0.00001;   -0.00002;  238.54601; 2518.93994; 2543.93994;   55.95680;   -0.00022;    2.13675;   47.02460;   47.01950;   47.79870;   47.79870;    0.33843
   -0.00000;   -0.00002;  238.86600; 2523.95996; 2548.96997;   57.07670;   -0.00012;    2.26928;   47.96300;   47.95660;   48.74740;   48.74740;    0.33826
    0.00000;    0.00002;  239.18600; 2529.09009; 2554.09009;   58.14340;   -0.00004;    2.28966;   48.82710;   48.82730;   49.64580;   49.64580;    0.33850
    0.00000;    0.00003;  239.50600; 2534.30005; 2559.30005;   59.15550;   -0.00008;    2.45272;   49.70520;   49.69660;   50.50180;   50.50180;    0.33834
    0.00000;   -0.00002;  239.82600; 2539.60010; 2564.60010;   60.12250;   -0.00020;    2.41471;   50.50280;   50.51240;   51.31720;   51.31720;    0.33793
    0.00001;   -0.00000;  240.12601; 2544.64990; 2569.64990;   60.99500;   -0.00013;    2.41240;   51.25020;   51.24910;   52.05540;   52.05540;    0.33828
    0.00000;   -0.00002;  240.42599; 2549.77002; 2574.77002;   61.83310;   -0.00022;    2.42119;   51.94570;   51.94770;   52.76190;   52.76190;    0.33681
   -0.00001;   -0.00002;  240.72600; 2554.94995; 2579.95996;   62.65320;    0.00017;    2.37476;   52.62980;   52.63830;   53.45210;   53.45210;    0.33832
   -0.00001;    0.00002;  241.02600; 2560.20996; 2585.20996;   63.44350;   -0.00034;    2.27324;   53.29830;   53.29610;   54.12070;   54.12070;    0.33687
   -0.00000;   -0.00001;  241.32600; 2565.53003; 2590.53003;   64.22860;    0.00035;    2.21049;   53.95850;   53.96230;   54.77970;   54.77970;    0.33826
   -0.00001;   -0.00002;  241.60600; 2570.55005; 2595.56006;   64.93940;    0.00022;    2.18000;   54.56370;   54.56240;   55.37810;   55.37810;    0.33741
    0.00000;   -0.00002;  241.88600; 2575.62988; 2600.63989;   65.65630;    0.00007;    1.92791;   55.16250;   55.16100;   55.98200;   55.98200;    0.33817
    0.00000;    0.00000;  242.16600; 2580.77002; 2605.77002;   66.35810;    0.00002;    1.70852;   55.76030;   55.76550;   56.57350;   56.57350;    0.33803
    0.00000;   -0.00000;  242.44600; 2585.94995; 2610.95996;   67.07330;   -0.00003;    1.47631;   56.35800;   56.34500;   57.17540;   57.17540;    0.33808
   -0.00001;    0.00000;  242.72600; 2591.19995; 2616.19995;   67.78130;   -0.00000;    0.95757;   56.95510;   56.95520;   57.82970;   57.82970;    0.33921
    0.00000;    0.00000;  243.00600; 2596.50000; 2621.50000;   68.50930;    0.00009;    0.88831;   57.53670;   57.53650;   58.38190;   58.38190;    0.33810
   -0.00002;   -0.00002;  243.28600; 2601.67993; 2626.68994;   62.18360;   -0.00009;    0.40989;   50.33060;   50.33060;   52.19990;   52.19990;    0.34259
    0.00002;    0.00001;  243.60600; 2606.69995; 2631.69995;   50.74160;   -0.00032;    0.25811;   40.86920;   40.86930;   42.69460;   42.69460;    0.34178
    0.01032;    0.03163;  244.02600; 2611.77002; 2636.77002;   36.21970;    0.44499;   -0.01268;   30.15750;   28.77800;   30.48150;   30.48150;    0.34258
    0.01202;    0.03143;  244.74600; 2616.81006; 2641.82007;   19.85930;    0.27144;   -0.08063;   17.90480;   14.13550;   17.75620;   17.75620;    0.33963
    0.01306;    0.03120;  245.66600; 2621.85010; 2646.86011;   19.50110;    0.27547;   -0.00550;   16.83680;   16.78750;   16.22300;   16.22300;    0.33983
    0.01376;    0.03140;  246.58600; 2626.89990; 2651.89990;   19.88300;    0.29218;   -0.03505;   16.78500;   15.34300;   17.77340;   17.77340;    0.33958
    0.01433;    0.03220;  247.50600; 2631.92993; 2656.92993;   19.48740;    0.28008;   -0.03741;   15.25080;   16.59810;   17.51770;   17.51770;    0.33987
    0.01440;    0.03179;  248.42599; 2636.96997; 2661.96997;   19.89730;    0.29634;    0.01626;   18.84690;   14.57420;   17.25020;   17.25020;    0.33961
    0.01439;    0.03135;  249.34599; 2642.01001; 2667.01001;   19.55790;    0.29594;   -0.07502;   13.15690;   16.81250;   16.78030;   16.78030;    0.33993
    0.01462;    0.03188;  250.26601; 2647.05005; 2672.05005;   19.86290;    0.29340;   -0.01786;   17.31310;   18.53330;   17.50530;   17.50530;    0.33971
    0.01474;    0.03234;  251.18600; 2652.09009; 2677.09009;   19.58160;    0.29411;   -0.01338;   16.75030;   14.47720;   16.90100;   16.90100;    0.33995
    0.01467;    0.03215;  252.10600; 2657.12012; 2682.12988;   19.94040;    0.28954;   -0.01473;   16.56430;   16.57470;   17.74120;   17.74120;    0.33962
    0.01458;    0.03164;  253.02600; 2662.16992; 2687.16992;   19.52690;    0.29357;   -0.00500;   16.40030;   16.98630;   17.47460;   17.47460;    0.33983
    0.01484;    0.03253;  253.94600; 2667.20996; 2692.20996;   19.98150;    0.30260;   -0.05911;   15.25570;   15.74220;   17.98810;   17.98810;    0.33964
    0.01466;    0.03183;  254.86600; 2672.23999; 2697.25000;   19.53690;    0.28492;   -0.01720;   17.99490;   15.40180;   17.47640;   17.47640;    0.33987
    0.01485;    0.03270;  255.78600; 2677.28003; 2702.29004;   20.00090;    0.31134;    0.01148;   16.77270;   17.97300;   16.38490;   16.38490;    0.33952
    0.01448;    0.03135;  256.70599; 2682.32007; 2707.32007;   19.61290;    0.29497;    0.03645;   14.54090;   17.22100;   16.64910;   16.64910;    0.34003
    0.01475;    0.03209;  257.62601; 2687.37012; 2712.37012;   20.00210;    0.28249;   -0.04880;   19.44190;   15.56070;   17.23300;   17.23300;    0.33952
    0.01467;    0.03197;  258.54599; 2692.39990; 2717.39990;   19.68690;    0.29477;   -0.00996;   14.08340;   15.15720;   16.33860;   16.33860;    0.33990
    0.01456;    0.03167;  259.46600; 2697.43994; 2722.43994;   20.01130;    0.29179;    0.02458;   16.32410;   17.77120;   17.72830;   17.72830;    0.33937
    0.01474;    0.03218;  260.38599; 2702.47998; 2727.47998;   19.59000;    0.29077;   -0.01162;   17.42740;   17.57290;   17.62680;   17.62680;    0.33983
    0.01484;    0.03261;  261.30600; 2707.51001; 2732.52002;   20.01370;    0.28254;   -0.01924;   15.45760;   19.13690;   17.94240;   17.94240;    0.33939
    0.01479;    0.03259;  262.22601; 2712.55005; 2737.55005;   19.72580;    0.28953;    0.00954;   16.73210;   14.65780;   16.10230;   16.10230;    0.33985
    0.01457;    0.03174;  263.14600; 2717.59009; 2742.59009;   20.07970;    0.29627;    0.02054;   16.70470;   17.64950;   16.43620;   16.43620;    0.33948
    0.01468;    0.03207;  264.06601; 2722.62012; 2747.62012;   19.70840;    0.28703;   -0.07809;   14.00740;   15.35100;   16.98220;   16.98220;    0.33978
    0.01468;    0.03207;  264.98599; 2727.65991; 2752.65991;   19.30010;    0.29288;    0.09150;   14.27540;   15.30490;   16.72910;   16.72910;    0.33972
    0.01476;    0.03237;  265.90601; 2732.68994; 2757.68994;   19.66470;    0.29556;   -0.02065;   15.08700;   17.26140;   17.24320;   17.24320;    0.33976
    0.01487;    0.03270;  266.82599; 2737.72998; 2762.72998;   20.08890;    0.30307;    0.02869;   19.23230;   15.07490;   17.15510;   17.15510;    0.33935
    0.01483;    0.03268;  267.74600; 2742.77002; 2767.77002;   19.63260;    0.28899;   -0.03300;   16.87870;   18.53280;   17.68410;   17.68410;    0.33976
    0.01466;    0.03212;  268.66599; 2747.80005; 2772.81006;   19.26080;    0.28212;   -0.00758;   18.48550;   18.42500;   15.78990;   15.78990;    0.34001
    0.01481;    0.03249;  269.58600; 2752.84009; 2777.84009;   19.66810;    0.28954;   -0.00217;   16.84530;   16.68840;   17.49010;   17.49010;    0.33981
    0.01468;    0.03203;  270.50601; 2757.87012; 2782.87988;   19.28040;    0.27786;   -0.02458;   18.22330;   18.47620;   15.80230;   15.80230;    0.34000
    0.01461;    0.03174;  271.42599; 2762.89990; 2787.89990;   19.70560;    0.29888;    0.04264;   17.48030;   16.47570;   17.52940;   17.52940;    0.33967
    0.01464;    0.03177;  272.34601; 2767.93994; 2792.93994;   19.41410;    0.28626;    0.05405;   12.03630;   14.30020;   16.82920;   16.82920;    0.33959
    0.01481;    0.03220;  273.26599; 2772.97998; 2797.97998;   19.65820;    0.28603;   -0.05021;   19.67680;   17.18740;   17.60250;   17.60250;    0.33976
    0.01490;    0.03264;  274.18600; 2778.02002; 2803.02002;   19.40250;    0.26848;   -0.05478;   18.39010;   12.92170;   15.87840;   15.87840;    0.33992
    0.01471;    0.03225;  275.10599; 2783.06006; 2808.06006;   19.75650;    0.29861;    0.00735;   15.22110;   19.10350;   16.91680;   16.91680;    0.33970
    0.01468;    0.03215;  276.02600; 2788.10010; 2813.10010;   19.41160;    0.29555;    0.12253;   14.64060;   15.98130;   16.02980;   16.02980;    0.34004
    0.01462;    0.03180;  276.94601; 2793.13989; 2818.13989;   19.79270;    0.29855;   -0.02351;   13.36250;   17.68220;   17.65500;   17.65500;    0.33976
    0.01474;    0.03238;  277.86600; 2798.18994; 2823.18994;   19.42230;    0.28651;   -0.04673;   16.64030;   15.64160;   16.13300;   16.13300;    0.33986
    0.01458;    0.03174;  278.78601; 2803.21997; 2828.22998;   19.81710;    0.29089;   -0.01938;   15.49820;   15.64620;   17.18160;   17.18160;    0.33967
    0.01465;    0.03192;  279.70599; 2808.27002; 2833.27002;   19.45860;    0.27721;    0.07740;   14.20370;   15.92140;   16.82340;   16.82340;    0.33955
    0.01480;    0.03235;  280.62601; 2813.31006; 2838.31006;   19.92950;    0.28581;   -0.04762;   14.48730;   13.05340;   16.59030;   16.59030;    0.33977
    0.01466;    0.03199;  281.54599; 2818.35010; 2843.35010;   19.45090;    0.30112;    0.06277;   14.70470;   18.17570;   16.44730;   16.44730;    0.33993
    0.01488;    0.03271;  282.42599; 2823.46997; 2848.46997;   23.03990;    0.33909;   -0.04103;   19.54310;   19.95150;   20.02660;   20.02660;    0.33917
    0.01480;    0.03301;  283.14600; 2828.47998; 2853.47998;   27.03340;    0.39612;   -0.03005;   24.34280;   25.26600;   22.98340;   22.98340;    0.33912
    0.01469;    0.03335;  283.78601; 2833.63989; 2858.63989;   30.92090;    0.44042;    0.01003;   24.96070;   27.71160;   26.39070;   26.39070;    0.33903
    0.00373;    0.00205;  284.34601; 2838.71997; 2863.71997;   34.35970;    0.03376;   -0.00254;   29.65510;   28.64050;   29.40120;   29.40120;    0.33894
    0.00195;    0.00063;  284.86600; 2843.91992; 2868.91992;   37.63120;    0.01062;    0.01231;   31.87730;   31.71200;   32.19930;   32.19930;    0.33894
    0.00099;    0.00057;  285.32599; 2848.90991; 2873.91992;   40.50090;    0.01030;    0.03913;   34.79530;   33.84200;   34.63340;   34.63340;    0.33881
    0.00061;    0.00005;  285.76599; 2854.03003; 2879.03003;   43.20480;    0.00004;    0.02668;   36.24720;   36.27710;   36.93290;   36.93290;    0.33881
    0.00058;   -0.00000;  286.18600; 2859.21997; 2884.21997;   45.72800;    0.00010;   -0.00704;   38.40900;   38.39560;   39.11300;   39.11300;    0.33864
    0.00058;    0.00002;  286.58600; 2864.42993; 2889.42993;   48.06500;    0.00016;   -0.01629;   40.26540;   40.36500;   41.09760;   41.09760;    0.33864
    0.00053;   -0.00000;  286.96600; 2869.62012; 2894.62012;   50.20160;   -0.00014;    0.01780;   42.17810;   42.23840;   42.91720;   42.91720;    0.33863
    0.00053;   -0.00000;  287.32599; 2874.73999; 2899.73999;   52.15720;    0.00004;    0.03335;   43.80840;   43.82780;   44.57630;   44.57630;    0.33858
    0.00050;    0.00000;  287.66599; 2879.75000; 2904.75000;   53.93790;    0.00003;   -0.03543;   45.30860;   45.31080;   46.08570;   46.08570;    0.33835
    0.00050;    0.00011;  288.00601; 2884.91992; 2909.92993;   55.64860;    0.00076;    0.05661;   46.76560;   46.76440;   47.53590;   47.53590;    0.33854
    0.00046;    0.00000;  288.32599; 2889.93994; 2914.93994;   57.19080;    0.00004;   -0.00004;   48.05010;   48.05010;   48.83870;   48.83870;    0.33842
    0.00046;    0.00000;  288.64600; 2895.09009; 2920.09009;   58.66640;    0.00003;   -0.08481;   49.26000;   49.26000;   50.08580;   50.08580;    0.33843
    0.00045;    0.00000;  288.96600; 2900.37012; 2925.37012;   60.07570;    0.00005;    0.00735;   50.45910;   50.45910;   51.27530;   51.27530;    0.33832
    0.00045;    0.00000;  289.26599; 2905.42993; 2930.42993;   61.33990;    0.00004;   -0.02561;   51.52170;   51.52160;   52.34260;   52.34260;    0.33840
    0.00044;    0.00001;  289.56601; 2910.59009; 2935.59009;   62.54990;    0.00025;   -0.01830;   52.53800;   52.53770;   53.36400;   53.36400;    0.33834
    0.00043;    0.00000;  289.86600; 2915.85010; 2940.85010;   63.70760;    0.00004;    0.00355;   53.50710;   53.50700;   54.33930;   54.33930;    0.33818
    0.00043;    0.00000;  290.14600; 2920.85010; 2945.85010;   64.74150;    0.00006;   -0.08358;   54.37960;   54.37950;   55.21060;   55.21060;    0.33827
    0.00042;    0.00000;  290.42599; 2925.91992; 2950.91992;   65.73080;    0.00003;    0.08426;   55.22210;   55.22200;   56.04310;   56.04310;    0.33832
    0.00039;    0.00000;  290.70599; 2931.07007; 2956.07007;   66.67820;   -0.00001;   -0.04582;   55.99740;   56.02510;   56.84070;   56.84070;    0.33818
    0.00038;    0.00000;  290.98599; 2936.29004; 2961.30005;   67.58400;    0.00002;    0.01573;   56.78550;   56.77070;   57.60230;   57.60230;    0.33821
    0.00038;    0.00000;  291.26599; 2941.58008; 2966.59009;   68.45030;    0.00008;    0.02588;   57.50660;   57.51200;   58.33110;   58.33110;    0.33815
    0.00038;    0.00000;  291.54599; 2946.93994; 2971.93994;   69.27850;    0.00005;   -0.03361;   58.20000;   58.19610;   59.02750;   59.02750;    0.33810
    0.00037;    0.00000;  291.80600; 2951.96997; 2976.96997;   70.01420;    0.00004;   -0.04815;   58.81330;   58.82670;   59.64770;   59.64770;    0.33809
    0.00037;    0.00001;  292.06601; 2957.05005; 2982.06006;   70.71930;    0.00012;    0.01408;   59.42170;   59.41480;   60.23810;   60.23810;    0.33803
    0.00037;    0.00000;  292.32599; 2962.17993; 2987.18994;   71.39480;    0.00008;   -0.01182;   59.99380;   59.98990;   60.80620;   60.80620;    0.33801
    0.00036;    0.00001;  292.58600; 2967.36011; 2992.37012;   72.04220;    0.00028;    0.02949;   60.52940;   60.52650;   61.34760;   61.34760;    0.33799
    0.00036;    0.00000;  292.84601; 2972.59009; 2997.59009;   72.66180;    0.00007;    0.00420;   61.05180;   61.05260;   61.86890;   61.86890;    0.33797
    0.00036;    0.00001;  293.10599; 2977.86011; 3002.86011;   73.25370;    0.00014;   -0.00349;   61.53770;   61.54550;   62.36280;   62.36280;    0.33805
    0.00035;   -0.00000;  293.36600; 2983.16992; 3008.16992;   73.81250;    0.00001;   -0.04750;   61.99870;   62.01900;   62.82970;   62.82970;    0.33797
    0.00035;    0.00000;  293.62601; 2988.52002; 3013.52002;   74.33940;    0.00007;    0.00560;   62.46010;   62.46340;   63.26960;   63.26960;    0.33797
    0.00034;    0.00000;  293.88599; 2993.90991; 3018.90991;   74.83760;    0.00003;    0.05584;   62.87460;   62.87750;   63.68410;   63.68410;    0.33802
    0.00034;    0.00000;  294.12601; 2998.90991; 3023.91992;   75.27310;    0.00002;   -0.00943;   63.23770;   63.24130;   64.04740;   64.04740;    0.33795
    0.00034;    0.00000;  294.36600; 3003.93994; 3028.94995;   75.68660;    0.00007;   -0.05511;   63.58560;   63.58550;   64.39260;   64.39260;    0.33796
    0.00034;    0.00000;  294.60599; 3009.00000; 3034.01001;   76.07920;   -0.00006;   -0.00188;   63.91510;   63.91980;   64.70770;   64.73380;    0.33796
    0.00033;    0.00000;  294.84601; 3014.09009; 3039.09009;   76.45240;    0.00000;   -0.02489;   64.23540;   64.23390;   65.01490;   65.04930;    0.33788
    0.00033;    0.00000;  295.08600; 3019.19995; 3044.19995;   76.80740;    0.00001;   -0.06236;   64.53380;   64.52550;   65.30910;   65.34690;    0.33787
    0.00033;    0.00000;  295.32599; 3024.33008; 3049.33008;   77.14500;    0.00002;   -0.05470;   64.81240;   64.81110;   65.60360;   65.61710;    0.33789
    0.00032;    0.00000;  295.56601; 3029.47998; 3054.48999;   77.46600;    0.00002;    0.03076;   65.08540;   65.08640;   65.86360;   65.89070;    0.33792
    0.00032;    0.00001;  295.80600; 3034.65991; 3059.65991;   77.77160;    0.00033;    0.03739;   65.34670;   65.34220;   66.14770;   66.12020;    0.33786
    0.00032;    0.00000;  296.04599; 3039.85010; 3064.86011;   78.06290;    0.00004;    0.00373;   65.58360;   65.58650;   66.40060;   66.34970;    0.33789
    0.00031;    0.00000;  296.28601; 3045.07007; 3070.07007;   78.34020;   -0.00001;   -0.03336;   65.82180;   65.81390;   66.62990;   66.58270;    0.33786
    0.00031;    0.00000;  296.52600; 3050.30005; 3075.30005;   78.60420;   -0.00003;    0.00847;   66.04380;   66.04170;   66.84770;   66.80620;    0.33784
    0.00031;    0.00000;  296.76599; 3055.55005; 3080.55005;   78.85600;    0.00006;    0.00088;   66.25260;   66.25360;   67.06520;   67.00850;    0.33777
    0.00030;   -0.00001;  297.00601; 3060.81006; 3085.81006;   79.09590;   -0.00028;    0.06120;   66.45750;   66.45660;   67.24660;   67.22720;    0.33784
    0.00030;    0.00000;  297.24600; 3066.09009; 3091.10010;   79.32490;   -0.00000;   -0.01619;   66.64630;   66.64460;   67.44030;   67.41580;    0.33790
    0.00030;    0.00000;  297.48599; 3071.38989; 3096.38989;   79.54300;    0.00004;   -0.04356;   66.82900;   66.83230;   67.62690;   67.59360;    0.33781
    0.00029;    0.00000;  297.72601; 3076.69995; 3101.69995;   79.75110;    0.00002;   -0.02346;   67.00770;   67.00800;   67.78950;   67.77930;    0.33776
    0.00029;   -0.00000;  297.96600; 3082.02002; 3107.02002;   79.94980;   -0.00003;   -0.02490;   67.17270;   67.17110;   67.92670;   67.97320;    0.33774
    0.00029;    0.00000;  298.20599; 3087.36011; 3112.36011;   80.13930;    0.00001;    0.02351;   67.33370;   67.33200;   68.08700;   68.12810;    0.33781
    0.00028;    0.00000;  298.44601; 3092.70996; 3117.70996;   80.32030;    0.00001;    0.02772;   67.48570;   67.48520;   68.23550;   68.28190;    0.33784
    0.00028;    0.00000;  298.68600; 3098.07007; 3123.07007;   80.49330;    0.00005;   -0.04406;   67.62860;   67.62980;   68.39560;   68.41060;    0.33781
    0.00028;    0.00000;  298.92599; 3103.43994; 3128.43994;   80.65820;    0.00002;    0.02180;   67.77060;   67.77080;   68.53200;   68.54980;    0.33754
    0.00027;    0.00001;  299.16599; 3108.82007; 3133.82007;   80.81580;    0.00014;   -0.00534;   67.90330;   67.90320;   68.66390;   68.68110;    0.33775
    0.00026;    0.00000;  299.40601; 3114.20996; 3139.21997;   80.96630;    0.00002;    0.02700;   68.02770;   68.02800;   68.78940;   68.80650;    0.33777
    0.00026;    0.00000;  299.64600; 3119.62012; 3144.62012;   81.11010;    0.00003;    0.07084;   68.14910;   68.14930;   68.90920;   68.92610;    0.33792
    0.00026;    0.00000;  299.88599; 3125.03003; 3150.03003;   81.24770;    0.00001;   -0.04587;   68.26350;   68.26330;   69.02460;   69.04120;    0.33777
    0.00025;    0.00000;  300.12601; 3130.44995; 3155.44995;   81.37900;    0.00002;   -0.02435;   68.37550;   68.37540;   69.13450;   69.15080;    0.33778
    0.00025;    0.00000;  300.36600; 3135.87988; 3160.87988;   81.50460;    0.00001;   -0.05211;   68.48340;   68.48340;   69.23970;   69.25580;    0.33768
    0.00025;    0.00000;  300.60599; 3141.32007; 3166.32007;   81.62470;    0.00003;    0.04587;   68.58140;   68.58160;   69.33920;   69.35510;    0.33785
    0.00024;    0.00000;  300.84601; 3146.76001; 3171.77002;   81.73950;    0.00002;   -0.01993;   68.67760;   68.67700;   69.43560;   69.45050;    0.33780
    0.00024;    0.00000;  301.08600; 3152.21997; 3177.21997;   81.84930;    0.00002;   -0.00956;   68.77100;   68.76940;   69.52450;   69.54470;    0.33775
    0.00024;    0.00000;  301.30600; 3157.21997; 3182.21997;   81.94580;    0.00002;   -0.03386;   68.85020;   68.85320;   69.60030;   69.63040;    0.33772
    0.00023;   -0.00000;  301.52600; 3162.22998; 3187.22998;   82.03840;   -0.00004;   -0.00540;   68.92950;   68.92760;   69.70700;   69.67780;    0.33776
    0.00023;    0.00000;  301.74600; 3167.25000; 3192.25000;   82.12720;    0.00000;   -0.03227;   69.00310;   69.00560;   69.76300;   69.77210;    0.33770
    0.00023;    0.00000;  301.96600; 3172.27002; 3197.27002;   82.21250;    0.00003;    0.02193;   69.07590;   69.07530;   69.84680;   69.82910;    0.33769
    0.00022;   -0.00000;  302.18600; 3177.30005; 3202.30005;   82.29450;   -0.00001;    0.01050;   69.14500;   69.14440;   69.92080;   69.89200;    0.33776
    0.00022;    0.00000;  302.40601; 3182.33008; 3207.33008;   82.37330;   -0.00001;    0.00624;   69.21100;   69.21010;   69.95490;   69.98930;    0.33779
