@relation all_clustered

@attribute Instance_number numeric
@attribute Length numeric
@attribute Angle numeric
@attribute Cluster {cluster0,cluster1,cluster2,cluster3,cluster4,cluster5,cluster6,cluster7,cluster8,cluster9,cluster10,cluster11,cluster12}

@data
0,2.33398,0.183835,cluster1
1,14.89574,-0.163601,cluster9
2,290.6035,-1.456371,cluster6
3,50.65701,-0.214147,cluster9
4,30.202,-0.010993,cluster10
5,25.36398,1.572321,cluster3
6,65.57001,0.020795,cluster0
7,35.625,-2.199127,cluster2
8,161.914,1.322356,cluster5
9,98.20899,-0.27343,cluster12
10,35.578,-0.001549,cluster0
11,30.46704,-1.611045,cluster11
12,191.54193,-0.402505,cluster8
13,104.52002,-0.145355,cluster12
14,95.75,-0.215251,cluster12
15,277.88001,-1.976776,cluster6
16,35.46997,-0.00635,cluster0
17,60.44006,0.805889,cluster3
18,25.35998,1.628375,cluster3
19,190.04004,0.033698,cluster1
20,55.47998,-1.31286,cluster11
21,25.39002,-1.613834,cluster11
22,25.31995,1.332105,cluster3
23,56.13,0.103533,cluster9
24,100.87012,-0.702004,cluster12
25,35.45996,-0.016852,cluster10
26,35.30005,0.275537,cluster9
27,60.86987,0.003817,cluster0
28,45.73999,-2.844678,cluster2
29,45.5,-0.029968,cluster9
30,121.16992,1.590927,cluster5
31,40.84009,0.04106,cluster9
32,139.55005,-0.000738,cluster0
33,354.82379,0.170448,cluster1
34,35.40802,-0.360536,cluster9
35,40.253,-0.75474,cluster9
36,30.246,-0.97252,cluster9
37,50.39798,-0.929062,cluster9
38,121.27002,0.586826,cluster4
39,65.711,-0.781801,cluster12
40,97.19097,-0.007032,cluster0
41,25.27704,0.672122,cluster9
42,183.31897,2.435729,cluster5
43,106.82001,0.235561,cluster12
44,40.39001,-0.84431,cluster9
45,50.63001,0.323773,cluster9
46,40.88,0.124161,cluster9
47,25.54993,0.055624,cluster10
48,15.4801,0.028859,cluster10
49,25.82996,0.042185,cluster10
50,30.75,0.082276,cluster10
51,40.33997,-0.656229,cluster9
52,55.35998,-2.041129,cluster2
53,35.21008,-0.566783,cluster9
54,35.39991,0.340548,cluster9
55,40.17004,-0.44802,cluster9
56,95.81006,-0.640166,cluster12
57,116.09997,0.791053,cluster4
58,71.05994,-0.270097,cluster12
59,75.47009,2.655269,cluster3
60,155.71985,0.529713,cluster4
61,180.64014,0.357761,cluster5
62,65.57007,0.477153,cluster3
63,90.42993,-1.634864,cluster11
64,30.32007,-1.589246,cluster11
65,25.17993,-0.426491,cluster9
66,50.60986,-0.015402,cluster0
67,25.16016,0.941799,cluster3
68,125.90991,-1.454412,cluster6
69,46.11011,0.138575,cluster9
70,10.35986,0.03802,cluster10
71,46.45996,0.187228,cluster9
72,40.39014,0.258751,cluster9
73,50.44995,0.835944,cluster3
74,40.41992,-0.62244,cluster9
75,60.8501,-0.390356,cluster12
76,106.54004,-0.776924,cluster12
77,25.29004,0.49885,cluster9
78,178.97998,-0.541636,cluster8
79,55.66992,-1.336492,cluster11
80,30.34009,0.326471,cluster9
81,60.68994,1.364572,cluster3
82,60.65991,-1.298496,cluster11
83,95.95996,1.046566,cluster3
84,55.59009,-0.975159,cluster11
85,354.91992,-0.010017,cluster1
86,55.63013,-0.218057,cluster9
87,218.24976,-1.155129,cluster6
88,25.54003,-0.363535,cluster9
89,142.18995,0.719736,cluster4
90,50.63037,-0.255102,cluster9
91,55.77978,-0.432226,cluster9
92,82.62988,-0.005667,cluster0
93,71.06006,-0.509939,cluster12
94,131.86035,0.866329,cluster4
95,30.77979,-0.088151,cluster10
96,36.43018,-0.132957,cluster9
97,200.66992,-0.889466,cluster6
98,86.10986,-1.477164,cluster11
99,126.54981,-1.283718,cluster6
100,25.38037,-0.206847,cluster9
101,82.25976,0.111654,cluster12
102,10.39014,0.017719,cluster0
103,52.27978,0.099403,cluster9
104,94.17041,0.267485,cluster12
105,45.67969,0.577923,cluster9
106,98.01026,-0.248609,cluster12
107,50.90966,-0.435754,cluster9
108,119.11036,0.180735,cluster12
109,35.81982,0.179882,cluster9
110,65.75,0.572072,cluster3
111,30.37012,0.81771,cluster9
112,101.10009,0.82926,cluster4
113,35.46973,0.966433,cluster3
114,217.3999,0.011325,cluster0
115,351.1906,-0.01609,cluster1
116,227.33902,-1.886128,cluster6
117,192.083,0.863675,cluster5
118,133.67499,0.62251,cluster4
119,26.02197,-0.002912,cluster10
120,90.94904,-1.595134,cluster11
121,197.51001,-2.468328,cluster6
122,106.42993,0.625326,cluster4
123,545.88001,0.175686,cluster1
124,181.70007,-2.601781,cluster6
125,182.30609,0.017221,cluster0
126,103.622,0.503287,cluster4
127,154.884,0.023161,cluster0
128,45.70801,0.516317,cluster9
129,51.27899,-0.001122,cluster0
130,25.72101,-0.001699,cluster10
131,72.67798,0.004304,cluster0
132,106.04699,-0.995392,cluster12
133,60.68006,-1.036704,cluster11
134,97.83899,-0.008612,cluster0
135,55.62298,-1.128044,cluster11
136,497.47601,-0.006779,cluster1
137,55.64002,1.127293,cluster3
138,35.27002,-0.714855,cluster9
139,176.69995,-1.759611,cluster6
140,50.67004,0.356868,cluster9
141,452.58997,0.003075,cluster1
142,182.36987,-1.423872,cluster6
143,50.34009,0.552516,cluster9
144,149.22998,0.013047,cluster0
145,226.93994,-2.317399,cluster6
146,348.69019,-0.006185,cluster1
147,297.3351,0.061197,cluster1
148,210.393,-0.56122,cluster8
149,43.401,-0.156758,cluster9
150,586.02399,-2.094948,cluster7
151,209.62,-0.531307,cluster8
152,597.68005,0.217268,cluster1
153,106.41992,-0.281259,cluster12
154,103.71997,-0.272205,cluster12
155,628.34009,-2.245003,cluster7
156,209.69995,-0.537454,cluster8
157,301.3501,0.118497,cluster1
158,202.1202,0.012129,cluster0
159,30.39601,0.259254,cluster9
160,51.771,0.002251,cluster0
161,60.74298,-0.54549,cluster12
162,93.29102,0.20699,cluster12
163,41.60699,0.081436,cluster9
164,161.63001,-1.949976,cluster6
165,40.41198,0.56646,cluster9
166,40.47101,-0.458086,cluster9
167,35.53803,0.480965,cluster9
168,35.25598,-0.477175,cluster9
169,156.591,-1.095513,cluster6
170,191.34003,1.681297,cluster5
171,70.56995,-0.368338,cluster12
172,141.55004,-0.802407,cluster6
173,40.37,0.467347,cluster9
174,236.58997,-1.340172,cluster6
175,46.21997,-0.001201,cluster0
176,80.77002,-1.352995,cluster11
177,141.21997,2.752289,cluster5
178,35.23999,-0.295088,cluster9
179,65.54004,-1.451371,cluster11
180,25.55993,0.25058,cluster9
181,35.34009,-0.404388,cluster9
182,90.91992,1.967899,cluster3
183,136.14014,-1.389638,cluster6
184,45.51001,-0.982284,cluster9
185,60.5498,0.755847,cluster3
186,55.56006,-0.915828,cluster11
187,40.33008,0.88197,cluster3
188,87.35986,0.013933,cluster0
189,80.59009,-1.337077,cluster11
190,35.29004,0.772129,cluster9
191,191.82007,-1.706617,cluster6
192,96.05981,0.652408,cluster4
193,281.80005,-1.214721,cluster6
194,297.7684,0.061997,cluster1
195,49.215,-0.139259,cluster9
196,162.35101,-0.441696,cluster8
197,153.24201,-0.570009,cluster8
198,209.43701,-0.570605,cluster8
199,301.35498,0.111004,cluster1
200,209.43994,-0.576385,cluster8
201,158.3501,-0.591103,cluster8
202,25.53992,-0.068807,cluster10
203,183.90002,-0.501825,cluster8
204,597.69995,0.213685,cluster1
205,209.43994,-0.576133,cluster8
206,158.3501,-0.590846,cluster8
207,209.43994,-0.566514,cluster8
208,301.36011,0.123575,cluster1
209,209.43994,-0.569769,cluster8
210,153.25,-0.569965,cluster8
211,209.43994,-0.572334,cluster8
212,35.73999,0.006451,cluster0
213,265.60987,0.105356,cluster1
214,247.17965,-0.162832,cluster1
215,70.856,-2.620999,cluster2
216,102.23398,-0.030649,cluster12
217,75.62002,-0.74626,cluster12
218,51.01398,-0.014251,cluster0
219,70.89203,2.579769,cluster3
220,50.68097,0.018925,cluster9
221,60.63299,1.267857,cluster3
222,51.01404,0.008624,cluster0
223,40.46796,-0.857318,cluster9
224,50.79803,-0.043516,cluster9
225,25.29901,0.477977,cluster9
226,45.71601,0.006501,cluster0
227,50.50598,1.720339,cluster3
228,117.56201,0.011483,cluster0
229,60.60998,-1.897473,cluster11
230,180.76001,-0.678208,cluster8
231,77.08997,-0.236654,cluster12
232,55.64002,1.87339,cluster3
233,35.26,-0.473112,cluster9
234,45.44996,-1.514844,cluster11
235,126.02002,-1.56364,cluster6
236,149.47998,-0.01881,cluster0
237,50.4801,-1.79253,cluster11
238,30.34997,1.582412,cluster3
239,450.43006,0.031457,cluster1
240,40.30981,-0.78231,cluster9
241,30.2002,-0.012205,cluster10
242,45.42993,-1.508806,cluster11
243,81.31006,-0.024162,cluster12
244,70.6499,2.290142,cluster3
245,148.3999,0.016002,cluster0
246,45.44019,-1.546914,cluster11
247,76.35986,-0.066214,cluster12
248,45.46997,-1.539594,cluster11
249,190.57007,-0.036768,cluster1
250,303.91411,0.021832,cluster1
251,31.508,-0.000708,cluster0
252,60.70398,-0.001519,cluster0
253,35.43701,0.574153,cluster9
254,196.03702,0.001711,cluster0
255,75.57996,-1.221054,cluster11
256,96.87103,0.001701,cluster0
257,80.97296,-1.360632,cluster11
258,98.151,-0.001425,cluster0
259,65.81006,-1.115674,cluster11
260,249.73999,-0.009244,cluster0
261,75.98999,1.965265,cluster3
262,50.51001,-1.794596,cluster11
263,247.94995,-0.025604,cluster1
264,93.59009,0.226936,cluster12
265,26.73999,0.063549,cluster10
266,601.37988,0.010022,cluster1
267,96.40015,-0.436037,cluster12
268,289.11987,-2.131682,cluster6
269,195.59009,-0.003015,cluster0
270,80.8999,-1.288405,cluster11
271,82.25,-0.009041,cluster0
272,67.03003,-0.002199,cluster0
273,70.62012,1.204969,cluster3
274,92.5498,0.000177,cluster0
275,83.33008,-0.004738,cluster0
276,51.19995,-0.001952,cluster0
277,95.95996,2.392468,cluster3
278,412.83008,-0.254539,cluster1
279,95.8999,-2.490293,cluster2
280,201.02002,0.003826,cluster0
281,35.32032,-0.599822,cluster9
282,455.38964,0.002385,cluster1
283,497.93222,0.007788,cluster1
284,262.763,2.300143,cluster5
285,75.945,-0.949293,cluster11
286,129.62098,-0.472045,cluster12
287,68.359,-0.212858,cluster12
288,126.70997,-1.182692,cluster6
289,104,0.313314,cluster12
290,36.09008,-0.141077,cluster9
291,338.63001,-1.87946,cluster6
292,181.96997,1.629504,cluster5
293,90.58997,-0.72368,cluster12
294,196.60998,-1.244965,cluster6
295,597.6499,-0.008422,cluster1
296,267.62012,-0.343987,cluster8
297,191.16992,-0.260702,cluster8
298,530.31006,0.001167,cluster1
299,122.26001,0.074578,cluster12
300,86.15991,0.058664,cluster12
301,70.53003,-0.106355,cluster12
302,136.78003,-0.196838,cluster12
303,25.14014,-0.038867,cluster10
304,37.54004,-0.058097,cluster9
305,151.8999,-0.235312,cluster8
306,168.93994,-0.359202,cluster8
307,115.79981,-1.621868,cluster6
308,237.49023,-0.007333,cluster0
309,75.75977,0.764736,cluster3
310,25.57031,0.00218,cluster10
311,65.67969,0.738829,cluster3
312,228.30029,-0.391696,cluster8
313,251.44971,0.00442,cluster0
314,324.55029,-1.262372,cluster6
315,112.14013,-0.125307,cluster12
316,183.83985,-0.204672,cluster8
317,90.81982,-0.872191,cluster12
318,25.25,-0.225725,cluster9
319,117.74024,-0.536359,cluster12
320,72.56006,0.001565,cluster0
321,251.45996,1.473096,cluster5
322,365.52002,0.008208,cluster1
323,149.72309,-0.005995,cluster0
324,36.03602,-0.000546,cluster0
325,46.02999,0.002051,cluster0
326,30.293,-0.427371,cluster9
327,133.55301,-0.021653,cluster0
328,75.49298,-1.074767,cluster11
329,61.073,-0.00389,cluster0
330,70.69702,1.082826,cluster3
331,60.86896,0.004859,cluster0
332,41.47504,-0.000193,cluster0
333,61.99701,0.004455,cluster0
334,100.92797,-1.753259,cluster6
335,50.95704,-0.04773,cluster9
336,82.63092,-0.000132,cluster0
337,55.81005,-0.384513,cluster9
338,269.59998,-0.010198,cluster1
339,58,-0.25269,cluster9
340,148.96997,0.018652,cluster0
341,65.78003,-1.550748,cluster11
342,30.28003,-0.000229,cluster10
343,35.43994,-0.639107,cluster9
344,30.3501,-0.003827,cluster10
345,65.66992,1.368747,cluster3
346,30.27002,0.006059,cluster10
347,35.37,1.02415,cluster3
348,50.78002,0.018172,cluster0
349,51.91004,0.009284,cluster0
350,100.68994,0.708026,cluster4
351,86.84009,0.002958,cluster0
352,46.22998,-0.001634,cluster0
353,36.11987,0.000665,cluster0
354,31.22998,-0.157143,cluster9
355,26.67017,-0.13325,cluster9
356,40.41992,-0.201925,cluster9
357,130.21997,0.003497,cluster0
358,95.40991,-0.482666,cluster12
359,198.88013,0.015443,cluster0
360,80.80005,-2.452954,cluster2
361,77.10986,-0.001836,cluster0
362,57.53003,0.000711,cluster0
363,30.30005,-0.451443,cluster9
364,98,-0.010753,cluster0
365,40.44995,0.593255,cluster9
366,66.75,0.061947,cluster12
367,46.87012,0.225419,cluster9
368,47.08984,0.213108,cluster9
369,51.02002,0.221398,cluster9
370,52.30005,0.224827,cluster9
371,26.55005,0.114175,cluster10
372,32.19995,0.139002,cluster9
373,27.1001,0.117344,cluster10
374,98.31982,-0.005301,cluster0
375,50.94019,-0.36621,cluster9
376,66.42993,-0.004263,cluster0
377,65.65991,-1.183138,cluster11
378,30.21997,-0.006128,cluster10
379,50.4502,-1.247582,cluster11
380,35.59985,-0.020819,cluster10
381,30.28003,0.45269,cluster9
382,35.37012,0.024035,cluster10
383,30.32983,-0.771872,cluster9
384,30.25,0.686848,cluster9
385,456.76001,0.047985,cluster1
386,356.18489,-0.010748,cluster1
387,105.02002,-0.051573,cluster12
388,117.38296,0.034019,cluster12
389,30.61902,0.062083,cluster10
390,357.32001,-0.019217,cluster1
391,50.69897,-0.036646,cluster9
392,123,-0.004059,cluster0
393,104.67004,-0.336812,cluster12
394,36.51001,-0.083491,cluster9
395,25.95997,-0.082795,cluster10
396,20.70007,-0.071994,cluster10
397,51.50989,-0.210854,cluster9
398,25.67004,-0.065071,cluster10
399,128.04004,-0.34711,cluster12
400,66.58997,0.005009,cluster0
401,57.04003,-0.125382,cluster9
402,675.37,0.251434,cluster1
403,141.42993,-1.823083,cluster6
404,228,-0.005485,cluster0
405,45.40015,-1.203072,cluster11
406,279.67993,-0.022541,cluster1
407,72.08008,0.004259,cluster0
408,47.05981,0.245236,cluster9
409,645.22998,-0.004814,cluster1
410,10.15015,0.075067,cluster10
411,55.56982,0.978403,cluster3
412,90.64014,-1.23065,cluster11
413,80.70996,1.027389,cluster3
414,948.68018,0.003435,cluster1
415,146.1997,-1.862454,cluster6
416,25.37012,-0.009371,cluster10
417,105.81982,-0.866431,cluster12
418,56.17041,-0.003974,cluster0
419,50.81983,-0.254952,cluster9
420,61.25,-0.187911,cluster9
421,129.5,-0.002095,cluster0
422,137.77002,-0.00013,cluster0
423,30.1499,0.002123,cluster10
424,60.75,-0.048919,cluster9
425,118.36989,-0.00467,cluster0
426,26.25802,0.043274,cluster10
427,35.90499,0.052176,cluster10
428,78.89301,-0.097473,cluster12
429,131.22299,3.532239,cluster5
430,40.33701,-0.188423,cluster9
431,40.33899,-0.317246,cluster9
432,50.38101,-1.194052,cluster11
433,25.17901,0.002757,cluster10
434,75.71601,-1.247215,cluster11
435,66.39996,-0.294427,cluster12
436,25.95801,-0.094766,cluster10
437,41.93597,0.001858,cluster0
438,36.69306,-0.062084,cluster9
439,51.76697,-0.081918,cluster9
440,160.77203,0.006145,cluster0
441,55.85998,-0.299784,cluster9
442,40.38001,-0.557263,cluster9
443,65.75,-0.586472,cluster12
444,65.97998,0.549989,cluster3
445,56.60999,-0.155197,cluster9
446,51.75,-0.265157,cluster9
447,74.32006,-0.200345,cluster12
448,30.53992,-0.067407,cluster10
449,95.75,-1.073265,cluster12
450,25.18005,-0.346462,cluster9
451,40.59998,-0.198737,cluster9
452,61.85999,-0.000558,cluster0
453,46.33996,-0.063693,cluster9
454,77.78003,-0.000042,cluster0
455,26.64002,0.041886,cluster10
456,25.20996,-0.001578,cluster10
457,25.60998,-0.011555,cluster10
458,96.06006,1.855851,cluster3
459,111.29004,-1.546144,cluster6
460,40.53003,-0.40628,cluster9
461,46.03003,0.226899,cluster9
462,159.68994,0.010265,cluster0
463,46.44995,0.122419,cluster9
464,41.59009,-0.001449,cluster0
465,62.07983,-0.111965,cluster12
466,36.51001,0.004665,cluster0
467,78.84009,-0.284814,cluster12
468,25.1499,-0.14151,cluster9
469,166.32007,-1.184093,cluster6
470,56.23999,0.010445,cluster0
471,97.23999,-0.374042,cluster12
472,110.80005,-0.88831,cluster12
473,96.15991,-0.604442,cluster12
474,57.02002,0.209774,cluster9
475,72.43018,-0.000985,cluster0
476,249.75951,0.003656,cluster0
477,70.75698,0.623863,cluster3
478,70.72202,-0.679388,cluster12
479,80.642,0.927595,cluster3
480,50.936,0.007364,cluster0
481,217.651,-0.000354,cluster0
482,60.68799,-1.499711,cluster11
483,81.69702,-0.018711,cluster0
484,60.67499,1.492451,cluster3
485,92.28095,0.025879,cluster12
486,55.60998,-1.414988,cluster11
487,231.84009,-0.088446,cluster1
488,45.40991,1.386789,cluster3
489,55.55005,-1.561937,cluster11
490,86.94995,-0.009101,cluster0
491,55.54004,-1.419939,cluster11
492,279.02002,-0.038046,cluster1
493,149.97998,-0.659377,cluster8
494,808.83008,0.002356,cluster1
495,50.65991,-2.230501,cluster2
496,71.63013,-0.103212,cluster12
497,75.94995,0.498471,cluster3
498,40.92993,0.018585,cluster9
499,60.56006,1.44693,cluster3
500,45.71997,0.116129,cluster9
501,15.47998,0.032633,cluster10
502,20.51001,0.047468,cluster10
503,36.27002,0.101301,cluster9
504,25.63989,0.041802,cluster10
505,20.93018,0.038679,cluster10
506,72.26001,0.166515,cluster12
507,40.59985,-0.326745,cluster9
508,30.25,-0.462829,cluster9
509,138.65015,-0.015622,cluster0
510,70.7998,-2.685744,cluster2
511,201.4502,-0.046998,cluster1